"name","NOM_ANCIEN","NOM_ACTUEL","COMMUNE","IDCOM","RELAIS1632","RELAIS1708","RELAIS1733","RELAIS1758","RELAIS1783","RELAIS1810","RELAIS1833","COORDXLAMB","COORDYLAMB","NODALITE16","NODALITE17","NODALITE0","NODALITE1","NODALITE2","NODALITE18","NODALITE3","COMM_DOUBL","P1600","P1700","P1750","P1780","P1809","P1831","ALTI","X","Y"
"1",NA,NA,"CERDON","1068","t","t","t","t","t","t","t",890448.71093019,6556540.0023829,2,2,2,2,3,2,2,"CERDON",0,0,0,0,0,0,610,8419,21250
"3",NA,NA,"COLLONGES","1109","t","t","t","t","t","t","t",923884.06486432,6563946.3045815,2,2,2,2,2,2,2,"COLLONGES",0,0,0,0,0,0,525,8753,21327
"5",NA,NA,"MONTLUEL","1262","t","t","t","t","t","t","t",859548.65055922,6530127.5647916,3,2,2,2,2,2,2,"MONTLUEL",0,0,0,0,0,2588,290,8112,20983
"6",NA,NA,"NANTUA","1269","t","t","t","t","t","t","t",900912.9096077,6565042.9083984,2,2,2,2,2,2,2,"NANTUA",0,0,0,0,3438,3372,706,8523,21336
"7",NA,NA,"SAINT-GERMAIN-DE-JOUX","1357","t","t","t","t","t","t","t",911128.51449704,6567852.6649344,2,2,2,2,2,2,2,"SAINT-GERMAIN-DE-JOUX",0,0,0,0,0,0,859,8625,21365
"11",NA,NA,"CHATEAU-THIERRY","2168","t","t","t","t","t","t","t",729246.47485343,6882879.7675287,2,2,2,2,3,3,3,"CHATEAU-THIERRY",0,0,0,0,3830,3749,109,6778,24502
"14",NA,NA,"CHEZY-SUR-MARNE","2186","t","t","t","f","f","f","f",726794.00806589,6876504.3750332,2,2,2,0,0,0,0,"CHEZY-SUR-MARNE",0,0,0,0,0,0,75,6754,24438
"19",NA,NA,"SOISSONS","2722","t","t","t","t","t","t","t",723564.67150763,6920106.6589431,1,3,3,4,6,6,5,"SOISSONS",0,7000,7000,0,7950,7946,50,6718,24874
"20",NA,NA,"VILLERS-COTTERETS","2810","t","t","t","t","t","t","t",706853.63202875,6905855.8016227,2,2,2,3,4,2,3,"VILLERS-COTTERETS",0,0,0,0,0,2639,128,6552,24730
"21",NA,NA,"BESSAY-SUR-ALLIER","3025","t","t","t","t","t","t","t",727801.54473364,6593795.3725927,3,2,2,2,2,2,2,"BESSAY-SUR-ALLIER",0,0,0,0,0,0,220,6788,21609
"22",NA,NA,"GANNAT","3118","t","t","t","t","t","t","t",715090.13082624,6555734.5403554,3,2,2,2,2,2,3,"GANNAT",0,0,0,0,4256,4674,379,6664,21227
"23",NA,NA,"LAPALISSE","3138","t","t","t","t","t","t","t",748402.71959432,6572338.6992553,2,2,2,2,2,2,3,"LAPALISSE",0,0,0,0,0,0,280,6996,21396
"24",NA,NA,"MOULINS","3190","t","t","t","t","t","t","t",725519.26995079,6607503.6578022,3,2,2,3,5,4,5,"MOULINS",0,11000,11000,16600,13177,14672,205,6764,21746
"25",NA,NA,"SAINT-GERAND-LE-PUY","3235","t","t","t","t","t","t","t",739416.80866952,6573114.0940286,2,2,2,2,2,2,3,"SAINT-GERAND-LE-PUY",0,0,0,0,0,0,324,6906,21403
"26",NA,NA,"SAINT-POURCAIN-SUR-SIOULE","3254","t","t","t","t","t","t","t",722277.1122615,6578554.6785731,2,2,2,2,2,2,4,"SAINT-POURCAIN-SUR-SIOULE",0,0,0,0,2826,2716,238,6734,21456
"27",NA,NA,"VARENNES-SUR-ALLIER","3298","t","t","t","t","t","t","t",731175.8848799,6579278.7888224,2,2,2,2,2,2,3,"VARENNES-SUR-ALLIER",0,0,0,0,0,0,240,6823,21464
"28",NA,NA,"ANTIBES","6004","t","t","t","t","t","t","t",1032562.8925293,6284371.3311767,2,2,2,2,2,2,3,"ANTIBES",0,3000,4000,0,5046,5565,58,9865,18538
"29",NA,NA,"CANNES","6029","t","t","t","t","f","t","t",1024545.9414178,6281444.0286961,2,2,2,2,0,2,3,"CANNES",0,4000,4000,0,3200,3720,48,9785,18508
"30",NA,NA,"NICE","6088","t","t","t","t","t","t","t",1043378.2540431,6298962.0051998,1,1,1,1,1,1,3,"NICE",16000,15000,16000,1e+10,12982,0,126,9972,18685
"41",NA,NA,"CARCASSONNE","11069","t","t","t","t","t","t","t",646956.71174455,6235418.5510235,2,3,3,3,3,2,2,"CARCASSONNE",0,11000,12000,14300,13700,14872,105,6009,18015
"42",NA,NA,"CASTELNAUDARY","11076","t","t","t","t","t","t","t",615088.14540557,6246973.4535283,2,2,2,2,2,2,2,"CASTELNAUDARY",0,5000,0,0,8313,8471,160,5689,18128
"46",NA,NA,"NARBONNE","11262","t","t","t","t","t","t","t",700367.95511413,6231772.5844377,3,3,3,3,3,3,3,"NARBONNE",0,8000,8000,0,9111,9281,5,6544,17983
"47",NA,NA,"VILLEPINTE","11434","t","t","f","f","t","t","t",625843.93971778,6243087.516216,2,2,0,0,2,2,2,"VILLEPINTE",0,0,0,0,0,0,146,5797,18090
"48",NA,NA,"AIX-EN-PROVENCE","13001","t","t","t","t","t","t","t",897805.65744747,6272847.4036167,3,4,4,4,4,5,5,"AIX-EN-PROVENCE",18000,28000,25000,27000,17000,15916,220,8517,18411
"51",NA,NA,"MALLEMORT","13053","t","t","f","f","f","f","f",875717.45831117,6294813.7452776,2,2,0,0,0,0,0,"MALLEMORT",0,0,0,0,0,0,119,8294,18629
"52",NA,NA,"MARSEILLE","13055","t","t","t","t","t","t","t",892289.8480369,6247022.241903,1,2,2,2,2,2,2,"MARSEILLE",45000,75000,68000,85000,78445,121272,89,8464,18152
"53",NA,NA,"ORGON","13067","t","t","t","t","t","t","t",864084.26748413,6301206.7242803,2,2,2,2,3,3,3,"ORGON",0,0,0,0,0,0,120,8177,18692
"56",NA,NA,"SAINT-CANNAT","13091","t","t","t","t","t","t","t",885405.46798597,6282943.1933347,2,2,2,2,2,2,2,"SAINT-CANNAT",0,0,0,0,0,0,215,8392,18511
"59",NA,NA,"CAEN","14118","t","t","t","t","t","t","t",454978.08815356,6903458.0231993,1,4,5,5,7,4,6,"CAEN",30000,27000,35000,34000,34479,37019,25,4032,24685
"68",NA,NA,"SAINT-FLOUR","15187","t","t","t","t","t","t","t",707395.52337167,6437205.2263823,2,2,1,1,1,2,3,"SAINT-FLOUR",0,0,0,0,4785,5813,840,6597,20040
"69",NA,NA,"AIGRE","16005","t","t","t","t","f","f","f",468346.44319905,6537212.5444854,2,2,2,2,0,0,0,"AIGRE",0,0,0,0,0,0,100,4196,21021
"70",NA,NA,"BARBEZIEUX-SAINT-HILAIRE","16028","t","t","t","t","t","t","t",453675.89239503,6490774.7483161,2,2,2,2,2,2,2,"BARBEZIEUX-SAINT-HILAIRE",0,0,0,0,0,0,78,4053,20555
"71",NA,NA,"CHATEAUNEUF-SUR-CHARENTE","16090","t","t","t","t","f","f","f",461981.82953044,6504493.8123525,2,2,2,2,0,0,0,"CHATEAUNEUF-SUR-CHARENTE",0,0,0,0,0,0,30,4135,20693
"72",NA,NA,"GOURVILLE","16156","t","t","t","t","f","f","f",465789.47852063,6530039.8591786,2,2,2,2,0,0,0,"GOURVILLE",0,0,0,0,0,0,85,4171,20949
"73",NA,NA,"REIGNAC","16276","t","t","t","t","t","t","t",450934.09919952,6485402.2405735,2,2,2,2,2,2,2,"REIGNAC",0,0,0,0,0,0,90,4026,20501
"74",NA,NA,"SAINT-CYBARDEAUX","16312","t","t","t","t","f","f","f",464734.28809157,6523254.5308744,2,2,2,2,0,0,0,"SAINT-CYBARDEAUX",0,0,0,0,0,0,91,4161,20881
"76",NA,NA,"DOMPIERRE-SUR-MER","17142","t","t","f","t","f","t","f",386615.36371088,6573554.3240141,2,2,0,2,0,3,0,"DOMPIERRE-SUR-MER",0,0,0,0,0,0,30,3375,21378
"77",NA,NA,"LA ROCHELLE","17300","t","t","t","t","t","t","t",379598.91466432,6570814.1192773,1,1,1,2,2,2,3,"LA ROCHELLE",23000,14000,16000,16200,15000,14632,11,3305,21350
"79",NA,NA,"BOURGES","18033","t","t","t","t","t","t","t",654156.40084949,6664560.5273733,2,1,1,1,1,1,5,"BOURGES",18000,15000,25000,25000,15510,17026,145,6045,22311
"81",NA,NA,"BRIVE-LA-GAILLARDE","19031","t","t","t","t","t","t","t",584833.33965504,6451921.1617209,2,2,2,2,2,2,4,"BRIVE-LA-GAILLARDE",0,0,0,0,5304,5776,191,5369,20177
"82",NA,NA,"DONZENAC","19072","t","t","t","t","t","t","t",584100.03903751,6459819.8861197,2,2,2,2,2,2,2,"DONZENAC",0,0,0,0,0,0,256,5361,20256
"86",NA,NA,"UZERCHE","19276","t","t","t","t","t","t","t",587677.7018987,6481470.2379585,2,3,3,3,3,3,3,"UZERCHE",0,0,0,0,0,0,359,5395,20473
"88",NA,NA,"BEAUNE","21054","t","t","t","t","t","t","t",839674.19555856,6659791.747402,2,2,2,2,4,3,4,"BEAUNE",0,0,0,0,8794,9272,217,7902,22279
"89",NA,NA,"DIJON","21231","t","t","t","t","t","t","t",853650.70336746,6693346.9165072,2,4,4,4,6,5,6,"DIJON",21000,22000,22000,20000,21568,25352,244,8039,22616
"92",NA,NA,"MONTBARD","21425","t","t","t","f","t","t","t",800666.98231365,6725875.7143629,2,2,2,0,4,4,4,"MONTBARD",0,0,0,0,0,0,345,7506,22937
"94",NA,NA,"SAINT-SEINE-L'ABBAYE","21573","t","t","t","f","t","t","t",834572.06618071,6705900.9595409,2,2,2,0,2,2,2,"SAINT-SEINE-L'ABBAYE",0,0,0,0,0,0,484,7847,22740
"95",NA,NA,"FELLETIN","23079","t","t","t","t","f","f","f",635957.4294043,6531921.388521,2,2,2,2,0,0,0,"FELLETIN",0,0,0,0,0,2816,600,5874,20982
"97",NA,NA,"SAINT-PARDOUX-LA-RIVIERE","24479","t","t","t","f","f","f","f",523912.88465465,6490793.1290526,2,2,2,0,0,0,0,"SAINT-PARDOUX-LA-RIVIERE",0,0,0,0,0,0,147,4756,20561
"98",NA,NA,"SAINT-PRIVAT","24490","t","t","t","f","f","f","f",481315.98164689,6462372.085422,2,2,2,0,0,0,0,"SAINT-PRIVAT",0,0,0,0,0,0,88,4332,20273
"105",NA,NA,"LORIOL-SUR-DROME","26166","t","t","t","t","t","t","t",844013.41091006,6407472.456241,2,2,2,2,2,2,2,"LORIOL-SUR-DROME",0,0,0,0,0,0,100,7967,19754
"106",NA,NA,"MONTELIMAR","26198","t","t","t","t","t","t","t",838733.71454065,6385838.4428346,2,2,2,2,2,2,2,"MONTELIMAR",0,4000,4000,0,5228,5816,80,7916,19537
"107",NA,NA,"PIERRELATTE","26235","t","t","t","t","t","t","f",835064.26145827,6365589.6788851,2,2,2,2,2,2,0,"PIERRELATTE",0,0,0,0,0,0,52,7881,19334
"108",NA,NA,"SAINT-VALLIER","26333","t","t","t","t","t","t","t",842916.01286383,6454437.5072408,2,2,2,2,2,2,3,"SAINT-VALLIER",0,0,0,0,0,0,160,7952,20224
"109",NA,NA,"TAIN-L'HERMITAGE","26347","t","t","t","t","t","t","t",845118.18394315,6443229.1156576,2,2,2,2,2,2,3,"TAIN-L'HERMITAGE",0,0,0,0,0,0,121,7975,20112
"110",NA,NA,"VALENCE","26362","t","t","t","t","t","t","t",849476.2338765,6427107.0539763,2,2,3,3,3,3,3,"VALENCE",0,5000,4000,0,7242,8898,134,8020,19951
"113",NA,NA,"EVREUX","27229","t","t","t","t","t","t","t",564835.77910431,6881960.6172421,2,1,3,5,5,5,5,"EVREUX",0,5000,6000,0,8430,7988,65,5133,24479
"118",NA,NA,"PONT-AUDEMER","27467","t","t","t","t","t","t","t",519078.29710818,6920018.8398687,2,2,3,4,5,5,4,"PONT-AUDEMER",0,5000,5000,0,5201,5305,27,4672,24856
"122",NA,NA,"CHARTRES","28085","t","t","t","t","t","t","t",588381.16218474,6817204.1479176,3,2,3,4,4,3,7,"CHARTRES",0,12000,10000,10700,13782,13576,147,5374,23833
"124",NA,NA,"DREUX","28134","t","t","t","t","t","t","t",580153.05952614,6849152.7044987,2,2,3,5,5,3,6,"DREUX",5000,5000,0,0,4866,5166,134,5289,24152
"128",NA,NA,"TOURY","28391","t","t","t","t","t","t","t",621224.36140389,6789047.9230464,2,2,2,2,2,3,2,"TOURY",0,0,0,0,0,0,135,5705,23554
"129",NA,NA,"BAGNOLS-SUR-CEZE","30028","t","t","t","t","t","t","t",829565.35778683,6341660.5695649,2,3,3,3,2,2,2,"BAGNOLS-SUR-CEZE",0,0,6000,0,4573,3800,41,7828,19094
"130",NA,NA,"CONNAUX","30092","t","t","t","t","t","t","t",827501.15569265,6333885.9718681,3,2,2,2,2,2,2,"CONNAUX",0,0,0,0,0,0,80,7808,19016
"131",NA,NA,"NIMES","30189","t","t","t","t","t","t","t",809375.70719348,6305269.8882002,2,2,2,2,3,4,3,"NIMES",13000,19000,30000,49000,37721,39639,94,7629,18728
"132","Pont sur Rhone",NA,"PONT-SAINT-ESPRIT","30202","t","t","t","t","t","t","t",831154.15688125,6352236.3007361,2,2,2,2,2,2,3,"PONT-SAINT-ESPRIT",0,0,0,0,4300,4250,84,7843,19200
"134",NA,NA,"SERNHAC","30317","t","t","f","f","f","f","f",824532.21290155,6313731.9481345,2,2,0,0,0,0,0,"SERNHAC",0,0,0,0,0,0,25,7780,18814
"135",NA,NA,"UCHAUD","30333","t","t","t","t","t","t","t",802204.38342266,6296040.6027087,2,2,2,2,2,2,2,"UCHAUD",0,0,0,0,0,0,26,7558,18635
"136",NA,NA,"CASTANET-TOLOSAN","31113","t","t","t","t","t","t","t",578617.81418253,6269754.3341236,2,2,2,2,2,2,2,"CASTANET-TOLOSAN",0,0,0,0,0,0,155,5322,18353
"137",NA,NA,"FRONTON","31202","t","t","t","f","f","f","f",570329.91739962,6306085.3348253,2,2,2,0,0,0,0,"FRONTON",0,0,0,0,0,0,129,5236,18716
"138",NA,NA,"MONTGISCARD","31381","t","t","f","f","f","f","f",584355.32704454,6263013.4826633,2,2,0,0,0,0,0,"MONTGISCARD",0,0,0,0,0,0,189,5380,18286
"139",NA,NA,"SAINT-JORY","31490","t","t","t","t","t","t","t",568840.62389727,6295209.0445738,2,3,2,2,2,2,2,"SAINT-JORY",0,0,0,0,0,0,115,5222,18607
"140",NA,NA,"TOULOUSE","31555","t","t","t","t","t","t","t",574699.8807733,6279077.1117563,4,2,2,2,3,4,6,"TOULOUSE",40000,38000,45000,54000,45083,59630,135,5282,18446
"141",NA,NA,"VILLEFRANCHE-DE-LAURAGAIS","31582","t","t","t","t","t","t","t",596186.73482637,6256321.6465004,2,2,2,2,2,2,2,"VILLEFRANCHE-DE-LAURAGAIS",0,0,0,0,0,0,200,5499,18220
"142",NA,NA,"BELIN-BELIET","33042","t","t","t","t","t","f","f",398651.22882101,6384328.2724464,2,2,2,2,2,0,0,"BELIN-BELIET",0,0,0,0,0,0,46,3511,19485
"143",NA,NA,"BORDEAUX","33063","t","t","t","t","t","t","t",417445.5318986,6422336.9124689,4,4,3,3,5,2,3,"BORDEAUX",40000,50000,67000,83000,88397,100262,3,3696,19867
"146",NA,NA,"COUTRAS","33138","t","t","t","f","f","f","f",453679.18277379,6442718.8800275,2,2,2,0,0,0,0,"COUTRAS",0,0,0,0,0,0,19,4057,20074
"147",NA,NA,"CUBZAC-LES-PONTS","33143","t","t","t","t","t","t","t",427947.62666248,6435937.4094088,2,2,2,2,3,3,3,"CUBZAC-LES-PONTS",0,0,0,0,0,0,36,3800,20004
"148","Petit Bordeaux (?), Gradignan","Gradignan","GRADIGNAN","33192","t","t","t","t","t","f","f",414186.46847018,6414770.97017,2,2,2,2,2,0,0,"GRADIGNAN",0,0,0,0,0,0,27,3664,19791
"150",NA,NA,"LIBOURNE","33243","t","t","t","t","t","t","t",444777.80054465,6429404.9864236,2,2,2,2,2,2,3,"LIBOURNE",0,0,0,0,5250,8046,18,3969,19940
"151",NA,NA,"LA REOLE","33352","t","t","t","t","t","t","t",458953.09261503,6391724.136202,2,2,2,2,2,2,2,"LA REOLE",0,0,0,0,2755,2964,60,4114,19564
"152",NA,NA,"SAINT-MACAIRE","33435","t","t","t","t","f","f","f",443655.89484975,6390251.8619002,2,2,2,2,0,0,0,"SAINT-MACAIRE",0,0,0,0,0,0,19,3961,19548
"153",NA,NA,"BEZIERS","34032","t","t","t","t","t","t","t",717599.10135934,6249507.8394008,2,2,2,2,2,2,2,"BEZIERS",0,12000,13000,14200,14125,14753,61,6715,18162
"154",NA,NA,"GIGEAN","34113","t","t","t","t","t","t","t",757505.04185033,6267051.0043211,2,2,2,2,2,2,2,"GIGEAN",0,0,0,0,0,0,69,7113,18341
"155",NA,NA,"LOUPIAN","34143","t","t","t","t","f","f","f",749664.86350108,6261323.5895181,2,2,2,2,0,0,0,"LOUPIAN",0,0,0,0,0,0,35,7035,18283
"156",NA,NA,"LUNEL","34145","t","t","t","t","t","t","t",791438.26412883,6286941.6842928,2,2,2,2,2,2,2,"LUNEL",0,0,0,0,4401,6050,8,7451,18543
"157",NA,NA,"MONTPELLIER","34172","t","t","t","t","t","t","t",770494.66295472,6279227.9018724,2,2,2,2,2,3,2,"MONTPELLIER",15000,25000,35000,31000,31807,33954,38,7242,18464
"158",NA,NA,"NISSAN-LEZ-ENSERUNE","34183","t","t","t","t","t","t","t",710355.04887184,6243375.7080106,2,2,2,2,2,2,2,"NISSAN-LEZ-ENSERUNE",0,0,0,0,0,0,36,6643,18100
"162",NA,NA,"ARGENTON-SUR-CREUSE","36006","t","t","t","t","t","t","t",586458.10599311,6610669.9098574,2,2,2,2,2,2,2,"ARGENTON-SUR-CREUSE",0,0,0,0,2806,3459,172,5372,21766
"163",NA,NA,"CHATEAUROUX","36044","t","t","t","t","t","t","t",600652.91341337,6635331.7524884,2,2,2,2,3,3,5,"CHATEAUROUX",0,4000,6000,10700,7844,10851,160,5512,22014
"164",NA,NA,"SAINT-BENOIT-DU-SAULT","36182","t","t","t","f","f","f","f",576535.00442917,6594965.4993556,2,2,2,0,0,0,0,"SAINT-BENOIT-DU-SAULT",0,0,0,0,0,0,232,5274,21608
"165",NA,NA,"VATAN","36230","t","t","t","t","t","t","t",609588.44750478,6664334.3989297,2,2,2,2,2,2,2,"VATAN",0,0,0,0,0,0,159,5599,22305
"166",NA,NA,"AMBOISE","37003","t","t","t","t","t","t","t",548054.05321282,6702619.2038452,2,3,2,2,2,2,2,"AMBOISE",0,0,6000,0,5114,4613,125,4980,22683
"169",NA,NA,"LIGUEIL","37130","t","t","t","f","f","f","f",534330.56418422,6662463.5349529,2,2,2,0,0,0,0,"LIGUEIL",0,0,0,0,0,0,75,4846,22280
"170",NA,NA,"LOCHES","37132","t","t","t","f","t","t","t",547996.4148539,6671642.8974563,2,2,2,0,2,2,2,"LOCHES",0,0,0,0,3636,3608,109,4982,22373
"171","Maill, Luynes",NA,"LUYNES","37139","t","t","t","t","f","t","t",515463.75931263,6700891.3011523,2,2,2,2,0,2,2,"LUYNES",0,0,0,0,0,0,86,4654,22663
"172",NA,NA,"MONTLOUIS-SUR-LOIRE","37156","t","t","t","f","f","f","f",536346.88559441,6700718.0456915,2,2,2,0,0,0,0,"MONTLOUIS-SUR-LOIRE",0,0,0,0,0,0,79,4863,22663
"174",NA,NA,"TOURS","37261","t","t","t","t","t","t","t",525163.34204376,6701710.2650788,3,2,3,4,6,6,7,"TOURS",65000,30000,22000,23000,22560,23235,97,4751,22672
"175",NA,NA,"BOURGOIN-JALLIEU","38053","t","t","t","t","t","t","t",877488.47631194,6501598.9598141,3,3,3,3,3,3,3,"BOURGOIN-JALLIEU",0,0,0,0,3200,3447,245,8294,20699
"177",NA,NA,"GRENOBLE","38185","t","t","t","t","t","t","t",913777.95016467,6457627.01887,2,1,1,2,2,3,3,"GRENOBLE",12000,20000,24000,25000,22650,24268,216,8661,20262
"178",NA,NA,"LE PEAGE-DE-ROUSSILLON","38298","t","t","t","t","t","t","t",840606.96120558,6476537.0525107,2,2,2,2,2,2,2,"LE PEAGE-DE-ROUSSILLON",0,0,0,0,0,0,140,7927,20445
"179",NA,NA,"LE PONT-DE-BEAUVOISIN","38315","t","t","t","t","t","t","t",908218.5716009,6496639.3378749,2,1,1,1,3,3,3,"LE PONT-DE-BEAUVOISIN",0,0,0,0,0,0,304,8602,20652
"181",NA,NA,"SAINT-ANDRE-LE-GAZ","38357","t","t","t","t","t","t","t",897635.69236545,6497529.5555207,2,2,2,2,2,2,3,"SAINT-ANDRE-LE-GAZ",0,0,0,0,0,0,405,8496,20660
"182",NA,NA,"LA TOUR-DU-PIN","38509","t","t","t","t","t","t","t",890655.21056255,6499088.1738996,2,2,2,2,2,2,2,"LA TOUR-DU-PIN",0,0,0,0,0,0,393,8426,20675
"183",NA,NA,"VIENNE","38544","t","t","t","t","t","t","t",846744.53873994,6493269.6496434,2,2,2,2,2,2,3,"VIENNE",0,8000,8000,10800,10058,13410,246,7987,20613
"184",NA,NA,"VOREPPE","38565","t","t","t","t","t","t","t",906689.79355346,6469876.7585993,2,2,3,3,3,3,4,"VOREPPE",0,0,0,0,0,0,282,8589,20384
"187",NA,NA,"CASTETS","40075","t","t","t","t","t","f","f",366740.45486487,6318156.826795,2,2,3,3,3,0,0,"CASTETS",0,0,0,0,0,0,60,3197,18820
"189",NA,NA,"MAGESCQ","40168","t","t","t","t","t","f","f",360556.35818256,6307118.9676004,2,2,2,2,2,0,0,"MAGESCQ",0,0,0,0,0,0,28,3136,18709
"190",NA,NA,"BLOIS","41018","t","t","t","t","t","t","t",574198.04128215,6722187.199776,4,2,3,2,3,2,3,"BLOIS",0,11000,11000,11300,10546,11002,110,5240,22881
"191",NA,NA,"CHAUMONT-SUR-THARONNE","41046","t","t","t","t","f","f","f",617682.09847967,6724022.5503546,2,2,2,2,0,0,0,"CHAUMONT-SUR-THARONNE",0,0,0,0,0,0,127,5675,22903
"192",NA,NA,"CHOUZY-SUR-CISSE","41055","t","t","t","t","t","t","t",567842.27759778,6714945.4165153,2,2,2,2,2,2,2,"CHOUZY-SUR-CISSE",0,0,0,0,0,0,70,5177,22808
"193",NA,NA,"ROMORANTIN-LANTHENAY","41194","t","t","t","t","f","f","f",605358.60888163,6696245.8536537,2,2,2,2,0,0,0,"ROMORANTIN-LANTHENAY",0,5000,6000,0,6206,6537,93,5554,22624
"195",NA,NA,"SAINT-LAURENT-NOUAN","41220","t","t","t","t","f","f","f",595898.6564931,6736096.1980897,2,2,2,2,0,0,0,"SAINT-LAURENT-NOUAN",0,0,0,0,0,0,88,5456,23022
"196",NA,NA,"FEURS","42094","t","t","t","t","t","t","t",795090.92493342,6516789.503923,2,2,2,2,2,2,5,"FEURS",0,0,0,0,0,0,344,7468,20844
"197",NA,NA,"LA PACAUDIERE","42163","t","t","t","t","f","t","t",767019.79606436,6564387.3287963,2,2,2,2,0,2,2,"LA PACAUDIERE",0,0,0,0,0,0,333,7183,21318
"198",NA,NA,"ROANNE","42187","t","t","t","t","t","t","t",782674.62396215,6548867.4064276,2,2,2,2,3,3,4,"ROANNE",0,0,0,0,8150,8890,275,7341,21164
"200",NA,NA,"SAINT-MARTIN-LESTRA","42261","t","t","t","t","f","f","f",805262.62028554,6514504.8464521,2,2,2,2,0,0,0,"SAINT-MARTIN-LESTRA",0,0,0,0,0,0,512,7570,20822
"201",NA,NA,"SAINT-SYMPHORIEN-DE-LAY","42289","t","t","t","t","t","t","t",793483.74510249,6539283.6677211,2,2,2,2,2,2,2,"SAINT-SYMPHORIEN-DE-LAY",0,0,0,0,0,0,425,7450,21069
"203",NA,NA,"ANCENIS","44003","t","t","t","t","t","t","t",384693.89597797,6704966.1515898,2,2,2,2,2,2,2,"ANCENIS",0,0,0,0,2562,3263,20,3345,22693
"204","Barre de Mauves, Mauves sur Loire",NA,"MAUVES-SUR-LOIRE","44094","t","t","t","t","t","t","f",368047.75638354,6697807.7624114,2,2,2,2,2,2,0,"MAUVES-SUR-LOIRE",0,0,0,0,0,0,15,3179,22620
"205",NA,NA,"NANTES","44109","t","t","t","t","t","t","t",355391.03084031,6689717.1748926,1,1,1,3,4,4,4,"NANTES",25000,42000,57000,59000,82315,77992,19,3053,22538
"206",NA,NA,"OUDON","44115","t","t","t","t","t","t","t",376484.17405587,6703034.8127207,2,2,2,2,2,2,2,"OUDON",0,0,0,0,0,0,70,3263,22673
"207",NA,NA,"VARADES","44213","t","t","t","t","t","t","t",396092.90260656,6705872.1403614,2,2,2,2,2,2,2,"VARADES",0,0,0,0,0,0,43,3459,22703
"208",NA,NA,"ARTENAY","45008","t","t","t","t","t","t","t",616520.70823969,6776295.8899806,3,2,2,2,2,2,3,"ARTENAY",0,0,0,0,0,0,121,5659,23426
"209",NA,NA,"BONNY-SUR-LOIRE","45040","t","t","t","t","f","f","f",687878.13119684,6717637.4001841,2,2,2,2,0,0,0,"BONNY-SUR-LOIRE",0,0,0,0,0,0,165,6378,22845
"210",NA,NA,"BRIARE","45053","t","t","t","t","t","t","t",680058.26242681,6726497.0286414,2,2,2,2,3,3,3,"BRIARE",0,0,0,0,0,0,162,6299,22933
"211",NA,NA,"CLERY-SAINT-ANDRE","45098","t","t","t","t","f","f","f",606785.49864892,6747397.1741235,2,2,2,2,0,0,0,"CLERY-SAINT-ANDRE",0,0,0,0,0,0,95,5564,23136
"212","Lafert-Lowental",NA,"LA FERTE-SAINT-AUBIN","45146","t","t","t","t","t","t","t",620379.7552153,6735891.5138387,3,2,2,2,2,2,2,"LA FERTE-SAINT-AUBIN",0,0,0,0,0,0,110,5701,23022
"213",NA,NA,"MONTARGIS","45208","t","t","t","t","t","t","t",681094.27789001,6766460.3805684,2,2,2,2,2,2,2,"MONTARGIS",0,5000,6000,0,6394,6781,85,6306,23333
"214",NA,NA,"ORLEANS","45234","t","t","t","t","t","t","t",618253.71669275,6756494.957926,3,3,4,3,5,4,7,"ORLEANS",40000,30000,37000,39000,45630,40161,108,5678,23228
"215","Saint Mesmin",NA,"SAINT-HILAIRE-SAINT-MESMIN","45282","t","t","t","t","f","f","f",612420.55592411,6752046.8196915,2,2,2,2,0,0,0,"SAINT-HILAIRE-SAINT-MESMIN",0,0,0,0,0,0,103,5620,23183
"216",NA,NA,"CAHORS","46042","t","t","t","t","t","t","t",575885.09789394,6373271.0113632,2,2,2,2,2,2,2,"CAHORS",0,0,0,0,10533,10818,116,5286,19389
"217",NA,NA,"CASTELNAU-MONTRATIER","46063","t","t","t","t","f","f","f",568327.2113498,6353453.7408762,2,2,2,2,0,0,0,"CASTELNAU-MONTRATIER",0,0,0,0,0,0,233,5212,19190
"218",NA,NA,"FRAYSSINET","46113","t","t","t","f","f","f","f",579779.65826786,6397015.2921664,2,2,2,0,0,0,0,"FRAYSSINET",0,0,0,0,0,0,280,5323,19627
"219",NA,NA,"PAYRAC","46215","t","t","t","t","t","t","t",578904.75790243,6411908.3406511,2,2,2,2,2,2,2,"PAYRAC",0,0,0,0,0,0,263,5313,19776
"220",NA,NA,"SOUILLAC","46309","t","t","t","t","t","t","t",579894.70806303,6422789.7366628,2,2,2,2,2,2,2,"SOUILLAC",0,0,0,0,0,0,102,5322,19885
"221",NA,NA,"AGEN","47001","t","t","t","t","t","t","t",509842.65778183,6348245.7520715,2,2,2,2,3,3,4,"AGEN",0,10000,10000,10500,9628,11991,48,4627,19133
"222",NA,NA,"MARMANDE","47157","t","t","t","t","t","t","t",474258.57305786,6382106.9264012,2,2,2,2,2,2,2,"MARMANDE",0,0,0,0,4191,5261,47,4268,19469
"223",NA,NA,"PORT-SAINTE-MARIE","47210","t","t","t","t","t","t","t",492107.17589607,6353887.2766428,2,2,2,2,2,2,3,"PORT-SAINTE-MARIE",0,0,0,0,0,0,159,4449,19188
"224",NA,NA,"TONNEINS","47310","t","t","t","t","t","t","t",485742.33530479,6369424.4451347,2,2,2,2,2,2,2,"TONNEINS",0,0,0,0,3219,3944,45,4384,19343
"225",NA,NA,"ANGERS","49007","t","t","t","t","t","t","t",432131.2865217,6713770.2974536,2,3,3,3,3,3,4,"ANGERS",26000,27000,23000,30000,25442,31423,20,3819,22785
"227",NA,NA,"LA DAGUENIERE","49117","t","t","t","t","t","f","f",441073.96867731,6707601.1776677,2,2,2,2,2,0,0,"LA DAGUENIERE",0,0,0,0,0,0,18,3909,22724
"228",NA,NA,"LES ROSIERS","49261","t","t","t","t","t","t","t",456396.58178195,6699580.8227162,2,2,2,2,2,2,2,"LES ROSIERS",0,0,0,0,0,0,23,4063,22645
"229",NA,NA,"SAINT-GEORGES-SUR-LOIRE","49283","t","t","t","t","f","t","t",416392.15685092,6707604.2411238,2,2,2,2,0,2,2,"SAINT-GEORGES-SUR-LOIRE",0,0,0,0,0,0,50,3662,22722
"230",NA,NA,"SAINT-MARTIN-DE-LA-PLACE","49304","t","t","t","t","t","f","f",462057.28131918,6695337.2552714,2,2,2,2,2,0,0,"SAINT-MARTIN-DE-LA-PLACE",0,0,0,0,0,0,24,4120,22603
"231",NA,NA,"SAINT-MATHURIN-SUR-LOIRE","49307","t","t","t","f","f","f","t",449656.29762833,6706231.472414,2,2,2,0,0,0,2,"SAINT-MATHURIN-SUR-LOIRE",0,0,0,0,0,0,20,3995,22711
"232","Saumur, la Croix-Verte",NA,"SAUMUR","49328","t","t","t","t","t","t","t",467297.8335275,6688599.0134218,2,2,2,2,2,2,6,"SAUMUR",10000,10000,9000,10100,9511,9977,25,4173,22536
"242",NA,NA,"CHALONS-SUR-MARNE","51108","t","t","t","t","t","t","t",799628.47070105,6873887.6162304,2,4,4,4,5,5,6,"CHALONS-SUR-MARNE",0,11000,15000,12500,12210,12413,85,7483,24418
"246","Port  Binson",NA,"MAREUIL-LE-PORT","51346","t","t","t","t","t","t","t",754367.15512924,6887064.5620013,2,2,2,2,2,2,2,"MAREUIL-LE-PORT",0,0,0,0,0,0,78,7029,24546
"254",NA,NA,"SAINT-DIZIER","52448","t","t","t","t","t","t","t",843607.44624821,6839433.2660337,2,3,3,3,4,3,3,"SAINT-DIZIER",0,0,0,0,5654,5957,140,7926,24077
"260",NA,NA,"NANCY","54395","t","t","t","t","t","t","t",933524.87462315,6847955.5739377,3,1,1,7,7,7,7,"NANCY",11000,15000,22000,35000,23191,29001,214,8825,24170
"261",NA,NA,"PONT-A-MOUSSON","54431","t","t","t","t","t","t","t",923430.78682517,6871128.4634505,2,2,2,3,4,3,4,"PONT-A-MOUSSON",0,0,0,0,6700,6993,178,8722,24401
"262",NA,NA,"TOUL","54528","t","t","t","t","t","t","t",912617.01377003,6845537.2590125,2,1,1,4,5,3,5,"TOUL",0,0,6000,0,5897,7208,217,8616,24144
"266","Ligny",NA,"LIGNY-EN-BARROIS","55291","t","t","t","t","t","t","t",871044.89355315,6845794.2489395,2,2,2,3,3,2,3,"LIGNY-EN-BARROIS",0,0,0,0,2969,3212,335,8200,24143
"271",NA,NA,"VOID-VACON","55573","t","t","t","t","t","t","t",892736.7722412,6846407.7343858,2,2,2,3,4,4,4,"VOID-VACON",0,0,0,0,0,0,280,8417,24151
"273",NA,NA,"CORNY-SUR-MOSELLE","57153","t","t","t","t","f","f","f",923556.50198596,6885718.6836282,2,2,2,2,0,0,0,"CORNY-SUR-MOSELLE",0,0,0,0,0,0,248,8722,24547
"274",NA,NA,"METZ","57463","t","t","t","t","t","t","t",932327.40367818,6894538.033311,1,5,5,6,6,5,6,"METZ",20000,22000,26000,44000,40206,44416,201,8809,24636
"279",NA,NA,"CHANTENAY-SAINT-IMBERT","58057","t","t","t","t","t","t","t",713983.99625711,6625886.4366124,2,2,2,2,2,2,2,"CHANTENAY-SAINT-IMBERT",0,0,0,0,0,0,215,6647,21929
"280",NA,NA,"LA CHARITE-SUR-LOIRE","58059","t","t","t","t","t","t","t",701411.45902554,6675354.4446945,2,3,3,3,3,3,4,"LA CHARITE-SUR-LOIRE",0,0,0,0,5137,4480,191,6517,22423
"281",NA,NA,"COSNE-COURS-SUR-LOIRE","58086","t","t","t","t","t","t","t",694133.25467577,6700996.7067339,2,2,2,2,2,2,2,"COSNE-COURS-SUR-LOIRE",0,0,0,0,4571,5123,173,6442,22679
"282",NA,NA,"MAGNY-COURS","58152","t","t","t","t","t","t","t",711427.93926939,6642694.9393792,2,2,2,2,2,2,2,"MAGNY-COURS",0,0,0,0,0,0,211,6620,22097
"284",NA,NA,"NEVERS","58194","t","t","t","t","t","t","t",711730.76757639,6654882.8426801,2,2,2,2,2,2,2,"NEVERS",0,0,0,14800,12500,11868,197,6622,22219
"286",NA,NA,"POUILLY-SUR-LOIRE","58215","t","t","t","t","t","t","t",696812.98452023,6686984.458604,2,2,2,2,2,2,2,"POUILLY-SUR-LOIRE",0,0,0,0,0,0,162,6470,22539
"287",NA,NA,"SAINT-PIERRE-LE-MOUTIER","58264","t","t","t","t","t","t","t",708944.837921,6632623.6573099,2,2,2,2,2,2,2,"SAINT-PIERRE-LE-MOUTIER",0,0,0,0,0,0,222,6596,21996
"306",NA,NA,"BRETEUIL","60104","t","t","t","t","t","t","t",649043.15226067,6948319.0471759,2,2,2,2,4,4,4,"BRETEUIL",0,0,0,0,0,0,88,5970,25150
"307",NA,NA,"CLERMONT","60157","t","t","t","t","t","t","t",657300.52794408,6919965.1726565,2,2,2,2,4,4,4,"CLERMONT",0,0,0,0,0,2594,68,6055,24867
"308",NA,NA,"COMPIEGNE","60159","t","t","t","t","t","t","t",687315.24950667,6923710.531373,1,2,2,5,5,4,5,"COMPIEGNE",0,4000,5000,0,4799,8879,56,6355,24907
"309",NA,NA,"CONCHY-LES-POTS","60160","t","t","t","t","t","t","t",680500.53471633,6945256.1583982,2,3,3,2,3,2,2,"CONCHY-LES-POTS",0,0,0,0,0,0,85,6285,25122
"311",NA,NA,"GOURNAY-SUR-ARONDE","60281","t","t","t","t","t","t","t",676396.07086996,6932597.6174737,2,2,2,2,3,3,2,"GOURNAY-SUR-ARONDE",0,0,0,0,0,0,91,6245,24995
"312",NA,NA,"LACROIX-SAINT-OUEN","60338","t","t","t","t","t","t","t",684361.51053466,6917139.077688,2,2,2,2,2,2,2,"LACROIX-SAINT-OUEN",0,0,0,0,0,0,41,6326,24841
"313",NA,NA,"NANTEUIL-LE-HAUDOUIN","60446","t","t","t","t","t","t","t",686258.24369623,6893136.7858058,2,2,2,3,3,3,2,"NANTEUIL-LE-HAUDOUIN",0,0,0,0,0,0,108,6347,24601
"316",NA,NA,"PONT-SAINTE-MAXENCE","60509","t","t","t","t","t","t","t",671121.93410605,6911553.7164782,2,2,2,2,2,2,2,"PONT-SAINTE-MAXENCE",0,0,0,0,0,0,31,6194,24784
"318",NA,NA,"SAINT-LEU-D'ESSERENT","60584","t","t","f","f","f","f","f",657350.11054811,6902074.9295079,2,2,0,0,0,0,0,"SAINT-LEU-D'ESSERENT",0,0,0,0,0,0,77,6057,24688
"319",NA,NA,"SENLIS","60612","t","t","t","t","t","t","t",669632.07329702,6900772.3933654,3,3,3,3,5,3,4,"SENLIS",0,0,0,0,3692,5066,55,6180,24676
"320",NA,NA,"VERBERIE","60667","t","t","t","t","f","f","t",680421.90601016,6912175.0307567,2,2,2,2,0,0,2,"VERBERIE",0,0,0,0,0,0,31,6287,24791
"321",NA,NA,"WAVIGNIES","60701","t","t","t","t","t","t","t",653559.70768106,6938686.4066333,2,2,2,2,3,3,2,"WAVIGNIES",0,0,0,0,0,0,143,6016,25054
"334",NA,NA,"BOULOGNE-SUR-MER","62160","t","t","t","t","t","t","t",601593.28096993,7070956.9096034,2,2,2,2,2,3,3,"BOULOGNE-SUR-MER",0,4000,0,0,12316,20856,17,5485,26373
"335",NA,NA,"CALAIS","62193","t","t","t","t","t","t","t",619790.66395641,7095494.2851484,1,2,2,3,3,3,3,"CALAIS",0,0,0,0,6609,10437,3,5665,26620
"336",NA,NA,"FRENCQ","62354","t","t","t","f","f","f","f",607634.75675231,7052314.7581781,2,2,2,0,0,0,0,"FRENCQ",0,0,0,0,0,0,50,5547,26187
"338","Beaupr, Marquise",NA,"MARQUISE","62560","t","t","t","t","t","t","t",608568.20316735,7080294.5506712,2,2,2,3,3,3,3,"MARQUISE",0,0,0,0,0,0,8,5554,26467
"339",NA,NA,"METZ-EN-COUTURE","62572","t","t","t","f","f","f","f",704420.34020707,6996528.0882687,2,2,2,0,0,0,0,"METZ-EN-COUTURE",0,0,0,0,0,0,115,6520,25637
"340",NA,NA,"MONTREUIL","62588","t","t","t","t","t","t","t",612042.16236702,7041482.8313092,2,2,2,3,3,3,3,"MONTREUIL",0,0,0,0,3930,4083,39,5592,26079
"345",NA,NA,"AIGUEPERSE","63001","t","t","t","t","t","t","t",715617.04527275,6547137.3479693,2,2,2,2,2,2,3,"AIGUEPERSE",0,0,0,0,3118,3113,349,6670,21141
"346",NA,NA,"CLERMONT-FERRAND","63113","t","t","t","t","t","t","t",706495.20766687,6519937.9425484,3,4,4,4,4,4,6,"CLERMONT-FERRAND",0,12000,24000,27000,30079,27180,344,6581,20868
"348",NA,NA,"LEZOUX","63195","t","t","t","t","t","t","t",729421.77261826,6525439.3423692,2,2,2,2,2,2,2,"LEZOUX",0,0,0,0,0,0,361,6810,20925
"350",NA,NA,"PONTAUMUR","63283","t","t","t","t","t","t","t",674706.85849277,6529897.35174,2,2,2,2,2,2,2,"PONTAUMUR",0,0,0,0,0,0,653,6262,20965
"352",NA,NA,"PONTGIBAUD","63285","t","t","t","t","t","t","t",688461.09554356,6525884.9050375,2,2,2,2,2,2,2,"PONTGIBAUD",0,0,0,0,0,0,694,6400,20926
"353",NA,NA,"RIOM","63300","t","t","t","t","t","t","t",708597.75969278,6532309.4262917,2,2,2,2,2,2,2,"RIOM",0,0,0,14900,12650,11992,330,6601,20992
"354","Angic (?), Saint-Avit",NA,"SAINT-AVIT","63320","t","t","t","t","t","t","t",663020.3408376,6530295.3741083,2,2,2,2,2,2,2,"SAINT-AVIT",0,0,0,0,0,0,719,6145,20968
"355",NA,NA,"THIERS","63430","t","t","t","t","t","t","t",742337.41693128,6528627.1520783,2,2,2,2,2,2,2,"THIERS",0,0,10000,13800,6884,6586,403,6939,20958
"356",NA,NA,"BAYONNE","64102","t","t","t","t","t","t","t",337726.12190583,6276038.6171659,2,2,2,2,3,3,3,"BAYONNE",0,10000,11000,11100,12424,13008,12,2910,18396
"358",NA,NA,"SAINT-JEAN-DE-LUZ","64483","t","t","t","t","t","t","t",322758.98316831,6265871.8006513,1,2,2,2,2,2,2,"SAINT-JEAN-DE-LUZ",0,0,0,0,0,0,61,2761,18293
"385",NA,NA,"BELLEVILLE","69019","t","t","t","f","f","f","f",834809.20037391,6558115.2995783,2,2,2,0,0,0,0,"BELLEVILLE",0,0,0,0,0,0,175,7862,21261
"386",NA,NA,"COURZIEU","69067","t","t","t","t","f","f","f",822168.6998018,6516958.5613144,2,2,2,2,0,0,0,"COURZIEU",0,0,0,0,0,0,458,7739,20848
"387",NA,NA,"GREZIEU-LA-VARENNE","69094","t","t","t","t","f","f","f",831368.48534582,6517879.1865984,2,2,2,2,0,0,0,"GREZIEU-LA-VARENNE",0,0,0,0,0,0,313,7831,20858
"388",NA,NA,"LYON","69123","t","t","t","t","t","t","t",842578.35192653,6520181.4305764,7,6,6,6,7,7,7,"LYON",35000,97000,114000,152000,104041,154795,166,7943,20882
"390",NA,NA,"TARARE","69243","t","t","t","t","t","t","t",811222.176983,6533837.1831871,2,2,2,2,2,2,2,"TARARE",0,0,0,0,2700,5990,549,7628,21016
"391",NA,NA,"VILLEFRANCHE-SUR-SAONE","69264","t","t","t","t","t","f","f",833395.35866031,6544638.8158792,2,2,2,2,2,0,0,"VILLEFRANCHE-SUR-SAONE",0,0,4000,0,5250,6460,172,7849,21126
"392",NA,NA,"SAINT-SYMPHORIEN-D'OZON","69291","t","t","t","t","t","t","t",844550.0830315,6505377.5627021,2,2,2,2,2,2,2,"SAINT-SYMPHORIEN-D'OZON",0,0,0,0,0,0,228,7964,20734
"398",NA,NA,"CHALON-SUR-SAONE","71076","t","t","t","t","t","t","t",841047.53157504,6633400.5270806,2,2,2,2,4,3,3,"CHALON-SUR-SAONE",0,0,5000,10900,10960,12220,190,7918,22015
"399",NA,NA,"DEMIGNY","71170","t","t","f","f","f","f","f",839582.06495335,6649000.8935368,2,2,0,0,0,0,0,"DEMIGNY",0,0,0,0,0,0,200,7902,22171
"400",NA,NA,"MACON","71270","t","t","t","t","t","t","t",840894.13184815,6580344.644617,2,2,2,2,3,3,3,"MACON",0,0,3000,0,10342,10998,173,7921,21484
"402",NA,NA,"SENNECEY-LE-GRAND","71512","t","t","t","t","t","t","t",843006.66847166,6617096.7003383,2,2,2,2,2,2,2,"SENNECEY-LE-GRAND",0,0,0,0,0,0,188,7939,21852
"403",NA,NA,"TOURNUS","71543","t","t","t","t","t","t","t",846330.17793919,6608475.1137649,2,2,2,2,2,2,3,"TOURNUS",0,0,0,0,4542,4316,210,7973,21766
"409",NA,NA,"PARIS","75056","t","t","t","t","t","t","t",652021.96618804,6862642.9170195,5,7,8,9,13,8,10,"PARIS",3e+05,510000,576000,604000,586027,825091,35,6007,24293
"411",NA,NA,"CAUDEBEC-EN-CAUX","76164","t","t","t","t","f","f","t",535523.15629173,6938572.0376062,2,2,2,2,0,0,4,"CAUDEBEC-EN-CAUX",0,0,0,0,2525,2782,111,4835,25043
"413",NA,NA,"LE HAVRE","76351","t","t","t","t","t","t","t",491736.15732585,6937235.5765241,1,1,1,1,3,2,2,"LE HAVRE",0,18000,14000,18100,16827,22000,6,4397,25026
"414",NA,NA,"ROUEN","76540","t","t","t","t","t","t","t",561322.44882089,6928163.3215223,4,4,5,7,8,7,9,"ROUEN",70000,64000,67000,75000,79163,102935,7,5094,24941
"417",NA,NA,"CHAILLY-EN-BIERE","77069","t","t","t","t","t","t","t",670939.14789301,6818511.4494363,2,2,2,2,2,2,2,"CHAILLY-EN-BIERE",0,0,0,0,0,0,79,6200,23853
"419",NA,NA,"DAMMARTIN-EN-GOELE","77153","t","t","t","t","t","t","t",676484.5707124,6883724.7141013,2,2,2,2,2,2,3,"DAMMARTIN-EN-GOELE",0,0,0,0,0,0,170,6250,24506
"420",NA,NA,"LA FERTE-SOUS-JOUARRE","77183","t","t","t","t","t","t","t",709268.54311392,6872254.9075988,2,2,2,2,3,2,4,"LA FERTE-SOUS-JOUARRE",0,0,0,0,2555,2777,70,6579,24394
"421",NA,NA,"FONTAINEBLEAU","77186","t","t","t","t","t","t","t",677679.65896931,6811958.8303332,3,3,4,4,6,4,5,"FONTAINEBLEAU",0,0,0,0,9040,8104,90,6268,23788
"423",NA,NA,"MEAUX","77284","t","t","t","t","t","t","t",691687.02826173,6873202.8770649,2,2,2,2,5,3,5,"MEAUX",0,4000,5000,0,7026,8481,58,6403,24402
"424",NA,NA,"MORET-SUR-LOING","77316","t","t","t","t","t","f","f",686139.9035223,6807890.2202692,2,2,2,2,2,0,0,"MORET-SUR-LOING",0,0,0,0,0,0,84,6353,23748
"433",NA,NA,"MAUZE-SUR-LE-MIGNON","79170","t","t","t","t","t","t","t",416983.63079788,6572805.5926548,2,2,2,2,2,3,3,"MAUZE-SUR-LE-MIGNON",0,0,0,0,0,0,30,3679,21373
"434",NA,NA,"NIORT","79191","t","t","t","t","t","t","t",433581.43586297,6586357.6416039,2,2,2,2,4,3,4,"NIORT",0,0,0,12300,15139,15832,15,3844,21510
"435",NA,NA,"SAINT-MAIXENT-L'ECOLE","79270","t","t","t","t","t","t","t",453937.30731423,6595182.5508923,2,2,2,2,2,2,3,"SAINT-MAIXENT-L'ECOLE",0,0,0,0,4002,4329,65,4047,21600
"436",NA,NA,"SAUZE-VAUSSAIS","79307","t","t","t","t","f","f","f",476456.20568372,6563423.1343591,2,2,2,2,0,0,0,"SAUZE-VAUSSAIS",0,0,0,0,0,0,138,4275,21284
"437",NA,NA,"ABBEVILLE","80001","t","t","t","t","t","t","t",616605.23693535,7001463.6564046,3,2,3,4,6,5,7,"ABBEVILLE",0,15000,15000,19200,17660,19162,9,5641,25679
"438",NA,NA,"AILLY-LE-HAUT-CLOCHER","80009","t","t","t","t","t","t","t",627973.83592577,6998369.9061434,2,2,2,2,2,2,2,"AILLY-LE-HAUT-CLOCHER",0,0,0,0,0,0,109,5755,25649
"439",NA,NA,"AMIENS","80021","t","t","t","t","t","t","t",649088.08294991,6977503.3452168,2,4,4,7,8,6,8,"AMIENS",25000,30000,33000,45000,35876,31457,20,5968,25442
"441",NA,NA,"FLIXECOURT","80318","t","t","t","t","t","t","f",634006.68864658,6990723.1793728,2,2,2,2,2,2,0,"FLIXECOURT",0,0,0,0,0,0,38,5816,25573
"445",NA,NA,"NOUVION","80598","t","t","t","t","t","t","t",612405.35210502,7013193.0624449,2,2,2,2,2,2,2,"NOUVION",0,0,0,0,0,0,23,5598,25796
"446",NA,NA,"PERONNE","80620","t","t","t","t","t","t","t",695199.22393179,6981613.2552073,2,3,4,5,5,4,5,"PERONNE",0,0,0,0,3595,3802,69,6429,25487
"447",NA,NA,"PICQUIGNY","80622","t","t","t","t","t","t","t",638439.62306199,6982989.8816026,2,2,2,2,2,2,2,"PICQUIGNY",0,0,0,0,0,0,70,5861,25496
"448",NA,NA,"ROYE","80685","t","t","t","t","t","t","t",684984.52673315,6955513.063214,2,3,3,4,5,2,5,"ROYE",0,0,0,0,3259,3636,70,6329,25225
"450",NA,NA,"CASTELSARRASIN","82033","t","t","t","f","f","t","t",548139.94344452,6328547.2756038,2,2,2,0,0,2,2,"CASTELSARRASIN",0,0,0,0,3042,3346,85,5012,18939
"451",NA,NA,"GRISOLLES","82075","t","t","f","t","t","f","t",563025.39001979,6304647.7796924,2,2,0,2,2,0,3,"GRISOLLES",0,0,0,0,0,0,103,5163,18701
"452",NA,NA,"LAMAGISTERE","82089","t","t","t","t","t","f","t",525848.19467062,6338822.3342334,2,2,2,2,2,0,2,"LAMAGISTERE",0,0,0,0,0,0,57,4788,19040
"453",NA,NA,"MALAUSE","82101","t","t","t","t","t","f","t",537702.06779707,6334727.968446,2,2,2,2,2,0,2,"MALAUSE",0,0,0,0,0,0,79,4907,19000
"454",NA,NA,"MONTAUBAN","82121","t","t","t","t","t","t","t",568395.40161301,6325681.2422449,2,2,3,3,4,3,2,"MONTAUBAN",14000,18000,16000,22000,18891,18255,100,5215,18912
"455","Montech, La Vitarelle",NA,"MONTECH","82125","t","t","f","f","t","f","t",558153.24677095,6319373.2457832,2,2,0,0,2,0,2,"MONTECH",0,0,0,0,0,0,100,5113,18848
"457",NA,NA,"BRIGNOLES","83023","t","t","t","t","t","t","t",948053.14491126,6261327.1068195,2,2,2,2,2,3,2,"BRIGNOLES",0,5000,5000,0,5021,5432,219,9021,18300
"458",NA,NA,"CABASSE","83026","t","t","t","t","f","f","f",960861.68172266,6263913.9118294,2,2,2,2,0,0,0,"CABASSE",0,0,0,0,0,0,209,9149,18327
"459",NA,NA,"FREJUS","83061","t","t","t","t","t","t","t",1002541.0229025,6266650.5992648,2,2,2,2,2,2,2,"FREJUS",0,0,0,0,0,2487,177,9566,18358
"460",NA,NA,"LE LUC","83073","t","t","t","t","t","t","t",968426.26248565,6260751.971305,2,2,3,3,3,3,3,"LE LUC",0,0,0,0,2520,2856,142,9225,18296
"461",NA,NA,"LE MUY","83086","t","t","t","t","t","t","t",988485.54600341,6270068.6220256,2,2,2,2,2,2,3,"LE MUY",0,0,0,0,0,0,16,9425,18391
"463",NA,NA,"TOURVES","83140","t","t","t","t","t","t","t",936761.69962963,6260924.9998431,2,2,2,2,2,2,3,"TOURVES",0,0,0,0,0,0,315,8908,18295
"464",NA,NA,"VIDAUBAN","83148","t","t","t","t","t","t","t",977850.02070785,6264666.2739515,2,2,2,2,2,2,3,"VIDAUBAN",0,0,0,0,0,0,52,9319,18336
"465",NA,NA,"AVIGNON","84007","t","t","t","t","t","t","t",845246.96256003,6317950.6675467,2,2,2,2,3,3,3,"AVIGNON",26000,23000,22000,26000,24466,29520,23,7987,18858
"466",NA,NA,"LAPALUD","84064","t","t","t","t","t","t","t",834697.21403483,6357700.7121612,2,2,2,2,3,3,3,"LAPALUD",0,0,0,0,0,0,45,7878,19255
"467",NA,NA,"CHATELLERAULT","86066","t","t","t","t","t","t","t",512746.36030446,6638261.5511185,2,2,2,2,2,2,2,"CHATELLERAULT",0,0,0,0,7805,9437,79,4632,22036
"468",NA,NA,"CHAUNAY","86068","t","t","t","t","t","t","t",481417.75646569,6571375.4125087,2,2,2,2,2,2,2,"CHAUNAY",0,0,0,0,0,0,127,4324,21364
"469",NA,NA,"COUHE","86082","t","t","t","t","t","t","t",482899.10767449,6581354.6774342,2,2,2,2,2,2,2,"COUHE",0,0,0,0,0,0,111,4338,21464
"471",NA,NA,"LUSIGNAN","86139","t","t","t","t","t","t","t",478927.50705311,6596475.2158985,2,2,2,2,2,2,2,"LUSIGNAN",0,0,0,0,0,0,145,4297,21615
"472",NA,NA,"NAINTRE","86174","t","t","t","t","t","t","f",507699.37313614,6632108.2024584,2,2,2,2,2,2,0,"NAINTRE",0,0,0,0,0,0,73,4582,21974
"473",NA,NA,"POITIERS","86194","t","t","t","t","t","t","t",496548.39298905,6612816.0310365,3,3,3,2,2,3,3,"POITIERS",20000,18000,18000,17800,20439,23128,112,4472,21780
"474",NA,NA,"VIVONNE","86293","t","t","t","t","t","t","t",489911.81249695,6595684.8442288,2,2,2,2,2,2,2,"VIVONNE",0,0,0,0,0,0,107,4407,21608
"475",NA,NA,"AIXE-SUR-VIENNE","87001","t","t","t","t","t","t","t",555158.09441113,6523604.2187134,2,2,2,2,2,2,2,"AIXE-SUR-VIENNE",0,0,0,0,0,0,242,5066,20892
"476",NA,NA,"ARNAC-LA-POSTE","87003","t","t","t","f","f","f","f",574572.57715379,6575298.1112941,2,2,2,0,0,0,0,"ARNAC-LA-POSTE",0,0,0,0,0,0,299,5256,21411
"477",NA,NA,"CHALUS","87032","t","t","t","t","t","t","t",542740.88574917,6508221.0172551,2,2,2,2,2,2,2,"CHALUS",0,0,0,0,0,0,361,4943,20737
"478",NA,NA,"LIMOGES","87085","t","t","t","t","t","t","t",564679.99668936,6527221.5930423,4,4,4,4,5,5,5,"LIMOGES",0,12000,18000,24000,14436,23804,280,5161,20929
"479",NA,NA,"RAZES","87122","t","t","f","t","f","f","f",571357.87710793,6549246.9345981,2,2,0,2,0,0,0,"RAZES",0,0,0,0,0,0,440,5226,21150
"480",NA,NA,"SAINT-PRIEST-TAURION","87178","t","t","t","t","f","f","f",576217.42614843,6532920.5290499,2,2,2,2,0,0,0,"SAINT-PRIEST-TAURION",0,0,0,0,0,0,320,5276,20987
"481",NA,NA,"SAUVIAT-SUR-VIGE","87190","t","t","t","t","t","t","t",592121.86898643,6535085.7117335,2,2,2,2,2,2,2,"SAUVIAT-SUR-VIGE",0,0,0,0,0,0,478,5435,21010
"482",NA,NA,"AUXERRE","89024","t","t","t","t","t","t","t",742664.97980964,6744355.5026158,2,2,2,2,2,2,3,"AUXERRE",0,0,0,10600,11505,10989,103,6924,23117
"483",NA,NA,"JOIGNY","89206","t","t","t","t","t","t","t",729546.80701104,6764752.3336094,2,2,2,2,3,3,3,"JOIGNY",7000,5000,0,0,4847,4700,215,6791,23320
"484",NA,NA,"NOYERS","89279","t","t","t","f","f","f","f",774548.63650636,6733292.6819271,2,2,2,0,0,0,0,"NOYERS",0,0,0,0,0,0,178,7244,23009
"485",NA,NA,"PONT-SUR-YONNE","89309","t","t","t","t","t","t","t",715441.9744306,6798548.9484386,2,2,2,2,3,2,2,"PONT-SUR-YONNE",0,0,0,0,0,0,96,6647,23657
"486",NA,NA,"SENS","89387","t","t","t","t","t","t","t",721153.27772388,6788507.3932395,2,2,2,2,3,3,3,"SENS",0,6000,8000,0,8718,9269,71,6705,23557
"487",NA,NA,"VILLENEUVE-LA-GUYARD","89460","t","t","t","t","t","t","t",704697.86663604,6804336.0439047,2,2,2,2,2,2,2,"VILLENEUVE-LA-GUYARD",0,0,0,0,0,0,64,6539,23714
"488",NA,NA,"VILLENEUVE-SUR-YONNE","89464","t","t","t","t","t","t","t",722042.81460171,6775508.5817669,2,2,2,2,2,2,2,"VILLENEUVE-SUR-YONNE",0,0,0,0,3849,3786,153,6715,23427
"490",NA,NA,"ANGERVILLE","91016","t","t","t","t","t","t","t",625528.29027975,6801803.4734136,2,2,2,2,3,2,2,"ANGERVILLE",0,0,0,0,0,0,138,5747,23682
"491",NA,NA,"CORBEIL-ESSONNES","91174","t","t","t","t","t","t","t",661380.37068044,6834581.5458255,3,2,2,2,2,2,4,"CORBEIL-ESSONNES",0,0,0,0,3163,6425,38,6103,24013
"492",NA,NA,"ETAMPES","91223","t","t","t","t","t","t","t",637830.9029919,6814991.7653181,2,2,2,2,2,3,4,"ETAMPES",0,5000,6000,0,8054,8109,80,5869,23815
"494",NA,NA,"LINAS","91339","t","t","t","t","f","f","f",646210.36307333,6837007.4626603,2,2,2,2,0,0,0,"LINAS",0,0,0,0,0,0,157,5951,24036
"495",NA,NA,"LONGJUMEAU","91345","t","t","t","t","t","t","t",648171.08842866,6844386.5341381,2,2,2,2,2,2,4,"LONGJUMEAU",0,0,0,0,0,0,75,5970,24110
"496",NA,NA,"BOURG-LA-REINE","92014","t","t","t","f","f","f","f",649747.1798534,6853567.4851002,3,2,2,0,0,0,0,"BOURG-LA-REINE",0,0,0,0,0,0,60,5985,24202
"498",NA,NA,"VILLEJUIF","94076","t","t","t","t","t","t","t",652853.41086161,6854540.8699057,2,2,2,4,4,2,2,"VILLEJUIF",0,0,0,0,0,0,103,6016,24212
"500",NA,NA,"ECOUEN","95205","t","t","t","t","t","t","t",654766.25553295,6880009.422639,2,2,2,2,2,2,2,"ECOUEN",0,0,0,0,0,0,99,6033,24467
"501",NA,NA,"FRANCONVILLE","95252","t","t","t","f","f","t","f",643349.43547454,6877207.0410898,2,2,2,0,0,2,0,"FRANCONVILLE",0,0,0,0,0,0,65,5919,24438
"502",NA,NA,"LOUVRES","95351","t","t","t","t","t","t","t",663678.8704344,6882133.3053961,2,2,2,3,4,4,5,"LOUVRES",0,0,0,0,0,0,94,6122,24489
"503",NA,NA,"LUZARCHES","95352","t","t","t","t","t","t","t",657750.74252714,6890278.3543564,2,2,2,2,2,2,2,"LUZARCHES",0,0,0,0,0,0,65,6062,24570
"504",NA,NA,"MAGNY-EN-VEXIN","95355","t","t","t","t","t","t","t",612827.76866066,6896351.599313,2,2,2,2,3,3,3,"MAGNY-EN-VEXIN",0,0,0,0,0,0,129,5612,24627
"505",NA,NA,"PONTOISE","95500","t","t","t","t","t","t","t",633711.23532644,6883883.9003563,2,2,2,3,3,3,4,"PONTOISE",0,5000,5000,0,5153,4979,28,5822,24504
"507","Genve, Sacconnay",NA,NA,"102001","t","t","t","t","t","t","t",942721.59671109,6573372.8993371,1,1,1,1,3,3,0,NA,0,0,0,0,0,0,0,0,0
"514","Saint Denis, Franciade",NA,"SAINT-DENIS","93066","t","t","t","t","t","t","t",652685.37462231,6870232.7996605,3,4,4,6,8,6,7,"SAINT-DENIS",0,0,0,0,4000,9686,37,6013,24369
"515",NA,NA,"LE BOURGET","93013","t","t","t","t","t","t","t",658186.66098182,6870786.2640597,3,3,3,3,3,3,4,"LE BOURGET",0,0,0,0,0,0,40,6068,24375
"518",NA,NA,"DIVES-SUR-MER","14225","t","t","t","t","t","f","f",474653.64543141,6913989.731372,2,2,3,3,3,0,0,"DIVES-SUR-MER",0,0,0,0,0,0,20,4228,24792
"520",NA,NA,"CARBON-BLANC","33096","t","t","t","t","t","t","t",423585.37865968,6427880.9737523,2,2,3,3,3,3,2,"CARBON-BLANC",0,0,0,0,0,0,25,3757,19923
"521",NA,NA,"BONDY","93010","t","t","t","t","t","t","t",661455.14170116,6867260.7934133,2,2,2,2,2,2,2,"BONDY",0,0,0,0,0,0,52,6101,24340
"522",NA,NA,"LESPERON","40152","t","t","t","t","t","f","f",371611.23657768,6327407.3295564,2,3,2,2,2,0,0,"LESPERON",0,0,0,0,0,0,80,3245,18913
"523",NA,NA,"SAINT-VINCENT-DE-TYROSSE","40284","t","t","t","t","t","t","f",352558.12819163,6294098.1446286,2,2,2,2,2,2,0,"SAINT-VINCENT-DE-TYROSSE",0,0,0,0,0,0,22,3057,18578
"524",NA,NA,"BIDART","64125","t","t","t","t","t","t","t",327992.16038976,6270623.9018062,2,2,2,2,2,2,2,"BIDART",0,0,0,0,0,0,21,2813,18341
"525",NA,NA,"ECOUIS","27214","t","t","t","t","t","t","t",585885.46662801,6913366.9420962,2,2,2,2,4,3,3,"ECOUIS",0,0,0,0,0,0,151,5341,24795
"532","Auxonnette","Auxonettes","SAINT-FARGEAU-PONTHIERRY","77407","t","t","f","f","f","f","f",664066.68128241,6825283.1623801,2,2,0,0,0,0,0,"SAINT-FARGEAU-PONTHIERRY",0,0,0,0,0,0,75,6145,23963
"538","Nogent",NA,"NOGENT-SUR-VERNISSON","45229","t","t","t","t","t","t","t",680552.38654709,6749576.5394742,2,2,2,2,2,3,3,"NOGENT-SUR-VERNISSON",0,0,0,0,0,0,125,6302,23164
"540","la Bussiere",NA,"LA BUSSIERE","45060","t","t","t","t","t","f","t",681256.75452382,6738278.3999738,2,2,2,2,2,0,2,"LA BUSSIERE",0,0,0,0,0,0,165,6310,23051
"542","la Selle",NA,"LA CELLE-SUR-LOIRE","58044","t","t","t","t","f","f","f",694691.82483515,6707986.9462117,2,2,2,2,0,0,0,"LA CELLE-SUR-LOIRE",0,0,0,0,0,0,165,6447,22749
"546","Villeneuve",NA,"VILLENEUVE-SUR-ALLIER","3316","t","t","t","t","t","t","t",719110.17943828,6617649.5974309,2,2,2,2,2,2,2,"VILLENEUVE-SUR-ALLIER",0,0,0,0,0,0,214,6699,21847
"547","Droiturier",NA,"DROITURIER","3105","t","t","t","t","f","t","t",755380.36486381,6570381.1508174,2,2,2,2,0,2,2,"DROITURIER",0,0,0,0,0,0,405,7066,21377
"548","Saint Germain de l'Espinasse",NA,"SAINT-GERMAIN-LESPINASSE","42231","t","t","t","t","t","t","t",774445.84053553,6556431.0794999,2,2,2,2,2,2,2,"SAINT-GERMAIN-LESPINASSE",0,0,0,0,0,0,315,7258,21239
"549","la Fontaine","la Fontaine","MACHEZAL","42128","t","t","t","t","t","f","f",800854.87428682,6536623.2263038,2,2,2,2,2,0,0,"MACHEZAL",0,0,0,0,0,0,660,7524,21043
"550","La Tour, Salavagny",NA,"LA TOUR-DE-SALVAGNY","69250","t","t","t","t","t","t","t",833230.72626111,6525356.8559776,2,2,2,2,2,2,2,"LA TOUR-DE-SALVAGNY",0,0,0,0,0,0,340,7849,20933
"551","Maltaverne",NA,"TRACY-SUR-LOIRE","58295","t","t","t","t","f","f","f",693858.45131886,6692105.6494864,2,2,2,2,0,0,0,"TRACY-SUR-LOIRE",0,0,0,0,0,0,165,6419,22581
"553","Sannes",NA,"TOULON-SUR-ALLIER","3286","t","t","t","t","f","f","f",727045.32492615,6598897.8423546,2,2,2,2,0,0,0,"TOULON-SUR-ALLIER",0,0,0,0,0,0,250,6785,21691
"555","l'Hospital",NA,"SAINT-CYR-DE-FAVIERES","42212","t","t","t","t","t","t","f",787513.29611674,6542132.1145729,2,2,2,2,2,2,0,"SAINT-CYR-DE-FAVIERES",0,0,0,0,0,0,402,7363,21089
"556","la Croisette",NA,"SAINT-ROMAIN-DE-POPEY","69234","t","t","t","t","f","f","f",817747.79228805,6531978.2326506,2,2,2,2,0,0,0,"SAINT-ROMAIN-DE-POPEY",0,0,0,0,0,0,363,7704,20964
"558","Auberive",NA,"AUBERIVES-SUR-VAREZE","38019","t","t","t","t","t","t","t",842054.27401343,6482219.6500858,2,2,2,2,2,2,2,"AUBERIVES-SUR-VAREZE",0,0,0,0,0,0,192,7941,20502
"559","St Rambert",NA,"SAINT-RAMBERT-D'ALBON","26325","t","t","t","t","t","t","t",842230.25254628,6467731.3181882,2,2,2,2,2,2,3,"SAINT-RAMBERT-D'ALBON",0,0,0,0,0,0,170,7944,20357
"560","la Coucourde, Laine","la Coucourde, Leyne","LA COUCOURDE","26106","t","t","t","t","t","f","f",841218.17742508,6396007.4151146,2,2,2,2,2,0,0,"LA COUCOURDE",0,0,0,0,0,0,129,7940,19639
"562","la Paillasse","la Paillasse","ETOILE-SUR-RHONE","26124","t","t","t","t","t","t","t",847384.00683221,6416981.3104655,2,2,2,2,2,2,2,"ETOILE-SUR-RHONE",0,0,0,0,0,0,120,8021,19850
"563","le Pin","le Pin","BOUC-BEL-AIR","13015","t","t","t","t","t","t","t",892799.85674428,6260649.5157182,2,2,2,2,2,2,2,"BOUC-BEL-AIR",0,0,0,0,0,0,212,8491,18327
"564","Rousset",NA,"ROUSSET","13087","t","t","t","t","f","f","f",912050.8417011,6268229.8676069,2,2,2,2,0,0,0,"ROUSSET",0,0,0,0,0,0,260,8660,18366
"565","l'Estrel",NA,"LES ADRETS-DE-L'ESTEREL","83001","t","t","t","t","t","t","t",1010124.0978633,6277173.6843759,2,2,2,2,2,2,2,"LES ADRETS-DE-L'ESTEREL",0,0,0,0,0,0,231,9641,18464
"566","Bron",NA,"BRON","69029","t","t","t","t","t","t","t",848442.94148538,6516634.4022761,2,2,2,2,2,2,2,"BRON",0,0,0,0,0,0,200,8002,20847
"567","St Laurent",NA,"SAINT-LAURENT-DE-MURE","69288","t","t","t","t","t","t","t",858990.98809053,6511648.5707682,2,2,2,2,2,2,2,"SAINT-LAURENT-DE-MURE",0,0,0,0,0,0,260,8108,20798
"568","La Verpilliere",NA,"LA VERPILLIERE","38537","t","t","t","t","t","t","t",867235.99648826,6506082.8383696,2,2,2,2,2,2,2,"LA VERPILLIERE",0,0,0,0,0,0,212,8191,20743
"570","Villevallier",NA,"VILLEVALLIER","89468","t","t","t","t","t","f","t",723489.44664155,6769300.5447426,2,2,2,2,2,0,2,"VILLEVALLIER",0,0,0,0,0,0,155,6730,23365
"571","Bassou",NA,"BASSOU","89029","t","t","t","t","t","t","t",738285.93952904,6758282.8816659,2,2,2,2,2,2,2,"BASSOU",0,0,0,0,0,0,139,6879,23256
"573","Eringe",NA,"ERINGES","21248","t","t","t","f","f","f","f",810030.71948886,6722398.3513232,2,2,2,0,0,0,0,"ERINGES",0,0,0,0,0,0,384,7600,22903
"574","Villeneuve",NA,"LA VILLENEUVE-LES-CONVERS","21695","t","t","t","f","t","t","t",818407.00265287,6720328.4761622,2,2,2,0,2,2,2,"LA VILLENEUVE-LES-CONVERS",0,0,0,0,0,0,402,7684,22883
"575","Chanceaux",NA,"CHANCEAUX","21142","t","t","t","f","t","t","t",829149.86237272,6714540.9268508,2,2,2,0,3,3,3,"CHANCEAUX",0,0,0,0,0,0,422,7792,22826
"576","Val de Suson",NA,"VAL-SUZON","21651","t","t","t","f","t","t","t",843342.74095025,6703227.810454,2,2,2,0,2,2,2,"VAL-SUZON",0,0,0,0,0,0,484,7935,22714
"577","l'hpital sous Rochefort",NA,"L'HOPITAL-SOUS-ROCHEFORT","42109","t","t","t","t","f","f","f",772436.21334419,6519779.5505227,2,2,2,2,0,0,0,"L'HOPITAL-SOUS-ROCHEFORT",0,0,0,0,0,0,428,7241,20872
"578","Crananchaix (?), Croc",NA,"CROCQ","23069","t","t","t","t","f","f","f",650828.3529285,6529998.2188681,2,2,2,2,0,0,0,"CROCQ",0,0,0,0,0,0,741,6023,20964
"579","Pont Charraut",NA,"PONTCHARRAUD","23156","t","t","t","t","f","f","f",643531.88130356,6529659.7637014,2,2,2,2,0,0,0,"PONTCHARRAUD",0,0,0,0,0,0,599,5950,20960
"583","Valbonne","la Valbonne","PEROUGES","1290","t","t","t","f","f","f","f",868958.45303703,6531844.5751963,2,2,2,0,0,0,0,"PEROUGES",0,0,0,0,0,0,214,8206,21041
"584","Cormos","Cormoz","CHATEAU-GAILLARD","1089","t","t","t","f","f","f","f",877440.82255063,6542663.6809342,2,2,2,0,0,0,0,"CHATEAU-GAILLARD",0,0,0,0,0,0,237,8298,21124
"587","Escolle","Escolles","BROUT-VERNET_DOUBLON","3043","t","t","t","f","f","f","f",720370.84834767,6566734.616925,2,2,2,0,0,0,0,"BROUT-VERNET_DOUBLON",0,0,0,0,0,0,280,6723,21325
"588","Compeix","le Compeix","SAINT-PIERRE-BELLEVUE","23232","t","t","t","t","f","f","f",611586.84202381,6532924.7271193,2,2,2,2,0,0,0,"SAINT-PIERRE-BELLEVUE",0,0,0,0,0,0,600,5651,21019
"589","Valiguieres",NA,"VALLIGUIERES","30340","t","t","t","t","t","t","t",826621.94379644,6324503.0597271,2,2,2,2,2,2,2,"VALLIGUIERES",0,0,0,0,0,0,140,7800,18922
"590","Saint Gervazy",NA,"SAINT-GERVASY","30257","t","t","t","t","t","t","t",818006.03028983,6309891.6222794,2,2,2,2,2,2,2,"SAINT-GERVASY",0,0,0,0,0,0,60,7715,18775
"592","Salces",NA,"SALSES-LE-CHATEAU","66190","t","t","t","t","t","t","t",693446.35974485,6192773.9942546,1,2,2,2,2,2,2,"SALSES-LE-CHATEAU",0,0,0,0,0,0,11,6478,17592
"599","Villeseque",NA,"VILLESEQUELANDE","11437","t","t","f","f","f","f","f",637487.79591045,6237895.4119983,2,2,0,0,0,0,0,"VILLESEQUELANDE",0,0,0,0,0,0,121,5914,18039
"600","Barbeyrac",NA,"BARBAIRA","11027","t","t","t","t","t","t","t",660212.74006695,6231910.7803456,2,2,2,2,2,2,2,"BARBAIRA",0,0,0,0,0,0,240,6142,17981
"601","Mons",NA,"MOUX","11261","t","t","t","t","t","t","t",671596.20249244,6231415.5216119,2,2,2,2,2,2,2,"MOUX",0,0,0,0,0,0,140,6256,17977
"602","Villedaigne",NA,"VILLEDAIGNE","11421","t","t","t","t","t","f","f",688710.02971575,6235267.0801393,2,2,2,2,2,0,0,"VILLEDAIGNE",0,0,0,0,0,0,30,6427,18017
"603","Chalaure",NA,"LES EGLISOTTES-ET-CHALAURES","33154","t","t","t","f","f","f","f",460421.16884746,6448557.8273243,2,2,2,0,0,0,0,"LES EGLISOTTES-ET-CHALAURES",0,0,0,0,0,0,25,4124,20133
"604","Cercls",NA,"CERCLES","24093","t","t","t","f","f","f","f",501219.70967236,6477093.8072887,2,2,2,0,0,0,0,"CERCLES",0,0,0,0,0,0,166,4530,20422
"605","Pierrebuffiere",NA,"PIERRE-BUFFIERE","87119","t","t","t","t","t","t","t",572246.96014041,6512071.7815531,2,2,2,2,2,2,2,"PIERRE-BUFFIERE",0,0,0,0,0,0,322,5238,20778
"606","Boisseil",NA,"BOISSEUIL","87019","t","t","t","t","t","t","f",570218.04452187,6520381.4629126,2,2,2,2,2,2,0,"BOISSEUIL",0,0,0,0,0,0,361,5217,20861
"607","Magnac",NA,"MAGNAC-BOURG","87088","t","t","t","t","t","t","t",577867.3809032,6503132.8436217,2,2,2,2,2,2,2,"MAGNAC-BOURG",0,0,0,0,0,0,420,5295,20689
"613","Fregefond","Freygefond","MASSERET_DOUBLON","19129","t","t","t","t","f","f","f",592274.36102262,6493064.8519311,2,2,2,2,0,0,0,"MASSERET_DOUBLON",0,0,0,0,0,0,460,5363,20605
"620","Boisseau",NA,"BOISSEAUX","45037","t","t","t","t","f","f","f",624776.94930973,6795613.9305872,2,2,2,2,0,0,0,"BOISSEAUX",0,0,0,0,0,0,135,5740,23620
"622","Dun le poillier",NA,"DUN-LE-POELIER","36068","t","t","t","t","f","f","f",605512.34899253,6678757.6040202,2,2,2,2,0,0,0,"DUN-LE-POELIER",0,0,0,0,0,0,90,5557,22449
"623","Chezeaux",NA,"LES GRANDS-CHEZEAUX","87074","t","t","t","f","f","f","f",576349.26822139,6584675.577291,2,2,2,0,0,0,0,"LES GRANDS-CHEZEAUX",0,0,0,0,0,0,290,5273,21505
"624","Cressensac",NA,"CRESSENSAC","46083","t","t","t","t","t","t","t",583309.78082908,6436947.7826099,2,2,2,2,2,2,2,"CRESSENSAC",0,0,0,0,0,0,296,5355,20027
"625","l'Hospitalet",NA,"LHOSPITALET","46172","t","t","t","t","f","f","f",572905.60319855,6363405.6616196,2,2,2,2,0,0,0,"LHOSPITALET",0,0,0,0,0,0,293,5257,19290
"627","Veuve",NA,"VEUVES","41272","t","t","t","t","t","t","t",558706.25732484,6709825.3602463,2,2,2,2,2,2,2,"VEUVES",0,0,0,0,0,0,60,5086,22756
"629","Varennes",NA,"VARENNES","37265","t","t","t","f","f","f","f",541846.69695654,6665099.0148761,2,2,2,0,0,0,0,"VARENNES",0,0,0,0,0,0,101,4921,22307
"633","Nonaville",NA,"NONAVILLE","16247","t","t","t","t","f","f","f",459529.58966557,6497919.9759795,2,2,2,2,0,0,0,"NONAVILLE",0,0,0,0,0,0,98,4111,20627
"634","Montlieu",NA,"MONTLIEU-LA-GARDE","17243","t","t","t","t","t","t","t",444479.62415243,6465973.2347798,2,2,2,2,2,2,2,"MONTLIEU-LA-GARDE",0,0,0,0,0,0,127,3963,20306
"635","Cavignac",NA,"CAVIGNAC","33114","t","t","t","t","t","t","t",433461.393769,6450378.5413904,2,2,2,2,2,2,2,"CAVIGNAC",0,0,0,0,0,0,55,3854,20149
"636","Muret",NA,"SAUGNACQ-ET-MURET","40295","t","t","t","t","t","f","f",398868.05343498,6374236.3404138,2,2,2,2,2,0,0,"SAUGNACQ-ET-MURET",0,0,0,0,0,0,53,3514,19384
"637","L'hispostey",NA,"LIPOSTHEY","40156","t","t","t","t","t","f","f",390602.9623807,6365313.1736081,2,2,2,2,2,0,0,"LIPOSTHEY",0,0,0,0,0,0,64,3432,19294
"638","la Bouhaire",NA,"LABOUHEYRE","40134","t","t","t","t","t","f","f",386910.93049236,6353655.1347485,2,2,2,2,2,0,0,"LABOUHEYRE",0,0,0,0,0,0,75,3396,19177
"639","Ondres",NA,"ONDRES","40209","t","t","t","t","t","t","t",340486.63622185,6283807.7687185,2,2,2,2,2,2,2,"ONDRES",0,0,0,0,0,0,10,2937,18474
"642","Chateaugaillard","Chteau-Gaillard","SANTILLY","28367","t","t","t","t","f","f","f",618476.21437354,6783083.4875115,2,2,2,2,0,0,0,"SANTILLY",0,0,0,0,0,0,133,5655,23498
"643","Lottiers","Lothiers","LUANT","36101","t","t","t","t","t","t","t",591357.25304003,6623019.2686401,2,2,2,2,2,2,2,"LUANT",0,0,0,0,0,0,145,5405,21928
"644","Mont Belltruye, Montbertuy","Montbaltruy","VIGOUX","36239","t","t","t","f","f","f","f",581190.89037073,6602120.9385393,2,2,2,0,0,0,0,"VIGOUX",0,0,0,0,0,0,205,5348,21681
"645","Mortrolles","Mortrolles sur Semmes","BESSINES-SUR-GARTEMPE","87014","t","t","t","t","t","t","t",573863.89764628,6562215.1115098,2,2,2,2,2,2,2,"BESSINES-SUR-GARTEMPE",0,0,0,0,0,0,314,5251,21237
"646","Barriolet","le Bariolet","PERPEZAC-LE-NOIR","19162","t","t","t","t","t","t","f",587094.85101332,6472128.966128,2,2,2,2,2,2,0,"PERPEZAC-LE-NOIR",0,0,0,0,0,0,372,5383,20366
"647","Pellacoy","Pelacoy","FRANCOULES","46112","t","t","f","f","f","f","t",578795.7215581,6385698.4315454,2,2,0,0,0,0,2,"FRANCOULES",0,0,0,0,0,0,327,5324,19494
"648","St Romans","St Romain","PUYCORNET","82144","t","t","t","t","f","f","f",568255.16340115,6339650.4885282,2,2,2,2,0,0,0,"PUYCORNET",0,0,0,0,0,0,168,5205,19084
"649","Les Trois Chemines",NA,"LAILLY-EN-VAL_DOUBLON","45179","t","t","t","f","f","f","f",600813.68812713,6740578.0343411,2,2,2,0,0,0,0,"LAILLY-EN-VAL_DOUBLON",0,0,0,0,0,0,96,5517,23082
"651","Chatier, Le Haut Chantier",NA,"LIMERAY","37131","t","t","t","t","t","f","f",553249.90165458,6707132.8092708,2,2,2,2,2,0,0,"LIMERAY",0,0,0,0,0,0,61,5023,22740
"652","la Sigogne","la Cigogne","CUSSAY","37094","t","t","t","f","f","f","f",529701.22819539,6658505.2093079,2,2,2,0,0,0,0,"CUSSAY",0,0,0,0,0,0,117,4824,22260
"653","la Tricherie",NA,"BEAUMONT","86019","t","t","t","t","t","t","t",504473.89426331,6628737.8334589,2,2,2,2,2,2,2,"BEAUMONT",0,0,0,0,0,0,146,4542,21947
"654","Ruffigny",NA,"ITEUIL","86113","t","t","t","t","t","f","f",490271.03108817,6602876.2506561,2,2,2,2,2,0,0,"ITEUIL",0,0,0,0,0,0,119,4446,21671
"655","les Minires",NA,"PAYRE","86188","t","t","t","t","t","t","t",484152.401597,6587939.0657115,2,2,2,2,2,2,2,"PAYRE",0,0,0,0,0,0,125,4363,21511
"656","Bannires",NA,"MONTJEAN","16229","t","t","t","t","f","f","f",476894.50682646,6556025.9090674,2,2,2,2,0,0,0,"MONTJEAN",0,0,0,0,0,0,141,4284,21231
"658","Colombieres",NA,"COULOMBIERS","86083","t","t","t","t","t","t","f",484270.62830959,6602226.2306595,2,2,2,2,2,2,0,"COULOMBIERS",0,0,0,0,0,0,150,4350,21673
"660","Courson",NA,"COURCON","17127","t","t","t","t","f","f","f",406141.15202461,6578689.8110248,2,2,2,2,0,0,0,"COURCON",0,0,0,0,0,0,11,3570,21431
"661","Nouaill",NA,NA,"17267","t","t","t","t","t","t","t",396935.57995243,6577066.7466068,2,2,2,2,2,2,3,NA,0,0,0,0,0,0,0,3478,21414
"663","Chouz",NA,"CHOUZE-SUR-LOIRE","37074","t","t","t","t","f","f","t",482662.88117198,6685774.166528,2,2,2,2,0,0,2,"CHOUZE-SUR-LOIRE",0,0,0,0,0,0,28,4327,22509
"677","St Jean",NA,"SAINT-JEAN-LES-DEUX-JUMEAUX","77415","t","t","t","t","t","t","t",701373.78986183,6872321.6228646,2,2,2,2,2,2,2,"SAINT-JEAN-LES-DEUX-JUMEAUX",0,0,0,0,0,0,157,6500,24394
"679","Plivaux",NA,"PLIVOT","51434","t","t","t","t","f","f","f",778295.47022022,6880265.391414,2,2,2,2,0,0,0,"PLIVOT",0,0,0,0,0,0,90,7269,24480
"680","Jalons",NA,"JALONS","51303","t","t","t","t","t","t","t",786682.98605654,6879394.5756567,2,2,2,2,2,2,2,"JALONS",0,0,0,0,0,0,80,7353,24472
"682","Chepy",NA,"CHEPY","51149","t","t","t","t","t","f","f",805370.97586186,6867542.5179117,2,2,2,2,2,0,0,"CHEPY",0,0,0,0,0,0,99,7541,24355
"683","la Chausse",NA,"LA CHAUSSEE-SUR-MARNE","51141","t","t","t","t","t","t","t",811407.3458841,6860495.320843,2,2,2,2,2,2,2,"LA CHAUSSEE-SUR-MARNE",0,0,0,0,0,0,143,7602,24285
"684","Vitry le brul",NA,NA,"51647","t","t","f","f","f","f","f",819521.53336089,6851031.8511531,2,2,0,0,0,0,0,NA,0,0,0,0,0,0,0,7684,24191
"688","St Aubin",NA,"SAINT-AUBIN-SUR-AIRE","55454","t","t","t","t","t","t","t",879656.94937433,6847819.1934113,2,2,2,3,3,3,3,"SAINT-AUBIN-SUR-AIRE",0,0,0,0,0,0,329,8286,24164
"689","Layes, Laye",NA,"LAY-SAINT-REMY","54306","t","t","t","t","t","t","t",903325.21108214,6845817.0546682,2,2,2,2,2,2,2,"LAY-SAINT-REMY",0,0,0,0,0,0,250,8523,24146
"712","Grichou (?), le Mesnil",NA,"LE MESNIL-AMELOT","77291","t","t","t","t","t","t","t",670254.29526615,6879679.4770726,2,2,2,2,2,2,3,"LE MESNIL-AMELOT",0,0,0,0,0,0,108,6188,24465
"718","La Chapelle en Serval",NA,"LA CHAPELLE-EN-SERVAL","60142","t","t","t","t","t","t","t",665960.57791057,6892008.2993534,2,2,2,2,4,3,3,"LA CHAPELLE-EN-SERVAL",0,0,0,0,0,0,100,6144,24588
"719","Cuvilly",NA,"CUVILLY","60191","t","t","t","t","t","t","t",678253.77333179,6939578.2127379,2,2,2,4,4,4,4,"CUVILLY",0,0,0,0,0,0,103,6263,25065
"720","Fonches",NA,"FONCHES-FONCHETTE","80322","t","t","t","t","t","t","t",686655.92568051,6964094.2575516,2,2,2,2,2,2,2,"FONCHES-FONCHETTE",0,0,0,0,0,0,80,6345,25311
"721","March le pot",NA,"MARCHELEPOT","80509","t","t","t","t","t","t","t",690208.51358635,6970561.0998843,2,2,2,2,3,2,2,"MARCHELEPOT",0,0,0,0,0,0,82,6380,25376
"723","Nurlu",NA,"NURLU","80601","t","t","t","f","f","f","f",701263.95928814,6989658.1178075,2,2,2,0,0,0,0,"NURLU",0,0,0,0,0,0,153,6489,25568
"730","Rousseloy",NA,"ROUSSELOY","60551","t","t","f","f","f","f","f",656027.37828768,6911180.8825266,2,2,0,0,0,0,0,"ROUSSELOY",0,0,0,0,0,0,74,6043,24779
"731","Flers",NA,"FLERS-SUR-NOYE","80315","t","t","t","t","t","t","t",645938.16932717,6959439.2793008,2,2,2,2,2,2,2,"FLERS-SUR-NOYE",0,0,0,0,0,0,155,5938,25261
"732","Hebecourt",NA,"HEBECOURT","80424","t","t","t","t","t","t","f",646713.11025517,6968428.0267589,2,2,2,2,2,2,0,"HEBECOURT",0,0,0,0,0,0,92,5945,25351
"733","Nampont",NA,"NAMPONT","80580","t","t","t","t","t","t","t",610635.1283336,7028600.4311678,2,2,2,2,2,2,2,"NAMPONT",0,0,0,0,0,0,33,5579,25950
"734","Bernay",NA,"BERNAY-EN-PONTHIEU","80087","t","t","t","t","t","t","t",610260.02515527,7019607.8260242,2,2,2,2,2,2,2,"BERNAY-EN-PONTHIEU",0,0,0,0,0,0,32,5576,25860
"735","Neuchatel",NA,"NEUFCHATEL-HARDELOT","62604","t","t","t","f","f","f","f",603488.65259546,7058546.5086217,2,2,2,0,0,0,0,"NEUFCHATEL-HARDELOT",0,0,0,0,0,0,97,5505,26249
"736","Bordeau de Vigny",NA,"VIGNY","95658","t","t","t","t","t","t","t",621643.48758077,6886883.3642469,2,2,2,2,2,2,3,"VIGNY",0,0,0,0,0,0,107,5701,24533
"737","St Clair",NA,"SAINT-CLAIR-SUR-EPTE","95541","t","t","t","t","f","f","f",603878.61920887,6901823.2722636,2,2,2,2,0,0,0,"SAINT-CLAIR-SUR-EPTE",0,0,0,0,0,0,110,5522,24681
"738","Tilliers",NA,"LES THILLIERS-EN-VEXIN","27633","t","t","t","t","t","t","t",598707.05149311,6904864.7168487,2,2,2,2,3,2,2,"LES THILLIERS-EN-VEXIN",0,0,0,0,0,0,124,5470,24711
"748","la Forge feret","la forge fret","BOOS","76116","t","t","t","t","t","t","t",569983.40647808,6922568.9968669,3,2,2,2,2,2,2,"BOOS",0,0,0,0,0,0,152,5174,24885
"749","Bois de lihu","Bois de lihus","MOYVILLERS","60441","t","t","t","t","t","t","t",672834.40605721,6922416.3913693,2,2,2,2,4,3,4,"MOYVILLERS",0,0,0,0,0,0,100,6229,24909
"750","Vertefeuille","Vertes-feuilles","SAINT-PIERRE-AIGLE","2687","t","t","t","t","t","t","t",714753.37757963,6911045.0693069,2,2,2,2,2,2,2,"SAINT-PIERRE-AIGLE",0,0,0,0,0,0,149,6616,24808
"753","la Villedieu du Perron","la Villedieu-du-Perron","PAMPROUX","79201","t","t","t","t","t","t","t",467225.33173351,6595073.1741639,2,2,2,2,2,2,2,"PAMPROUX",0,0,0,0,0,0,147,4160,21577
"754","les trois Volets",NA,"LA CHAPELLE-SUR-LOIRE_DOUBLON","37058","t","t","t","t","f","t","t",493907.01307631,6688750.0304607,2,2,2,2,0,2,2,"LA CHAPELLE-SUR-LOIRE_DOUBLON",0,0,0,0,0,0,32,4399,22521
"759","la Harie","Laharie","ONESSE-ET-LAHARIE","40210","t","t","t","t","t","f","f",378869.35827089,6335148.2292362,2,2,2,2,2,0,0,"ONESSE-ET-LAHARIE",0,0,0,0,0,0,60,3268,19016
"761","Mons, St Gours","Monts","SAINT-GEOURS-DE-MAREMNE","40261","t","t","t","t","t","t","t",358873.95348556,6296843.4551255,2,2,2,2,2,2,2,"SAINT-GEOURS-DE-MAREMNE",0,0,0,0,0,0,20,3120,18606
"762","Aixey sous rougemont",NA,"ROUGEMONT","21530","t","t","t","f","f","f","f",793511.7700526,6730533.3022245,2,2,2,0,0,0,0,"ROUGEMONT",0,0,0,0,0,0,299,7434,22983
"763","La Roche au Breuil, la Roche","La Roche","SAINT-JEAN-DE-LINIERES","49289","t","t","t","t","t","f","f",423530.69029551,6712941.6893134,2,2,2,2,2,0,0,"SAINT-JEAN-DE-LINIERES",0,0,0,0,0,0,75,3733,22776
"764","Prey","Prhy",NA,"89315","t","t","t","f","f","f","f",756214.64607079,6739544.0611819,2,2,2,0,0,0,0,NA,0,0,0,0,0,0,0,0,0
"765","Sauvign","Sanvigne",NA,"89161","t","t","t","f","f","f","f",783134.36929748,6732320.5451964,2,2,2,0,0,0,0,NA,0,0,0,0,0,0,0,7357,22992
"768","Licheres",NA,"LICHERES-PRES-AIGREMONT","89224","t","f","t","f","f","f","f",763984.13800742,6736580.1106897,2,0,2,0,0,0,0,"LICHERES-PRES-AIGREMONT",0,0,0,0,0,0,237,7138,23041
"775","Chastres, Arpajon",NA,"ARPAJON","91021","t","t","t","t","t","t","t",644572.77560423,6832424.0785127,2,2,2,2,3,2,6,"ARPAJON",0,0,0,0,0,0,51,5935,23990
"776","Cercottes",NA,"CERCOTTES","45062","t","f","t","t","f","f","f",616431.18724522,6765603.9744008,2,0,2,2,0,0,0,"CERCOTTES",0,0,0,0,0,0,123,5659,23319
"777","Milliance",NA,"MILLANCAY","41140","t","f","t","t","f","f","f",607337.37458945,6705822.3308347,2,0,2,2,0,0,0,"MILLANCAY",0,0,0,0,0,0,101,5573,22720
"778","Villefranche",NA,"VILLEFRANCHE-SUR-CHER","41280","t","f","t","f","f","f","f",606894.76191593,6688738.5708657,2,0,2,0,0,0,0,"VILLEFRANCHE-SUR-CHER",0,0,0,0,0,0,100,5570,22549
"785","Sanbin",NA,"SAMBIN","41233","t","f","t","f","f","f","f",571561.08636153,6705521.3179091,2,0,2,0,0,0,0,"SAMBIN",0,0,0,0,0,0,106,5215,22714
"786","Montils",NA,"LES MONTILS","41147","t","f","t","f","f","f","f",571813.31091247,6711814.6778584,2,0,2,0,0,0,0,"LES MONTILS",0,0,0,0,0,0,92,5217,22777
"788",NA,NA,"MONTRICHARD","41151","t","f","t","f","f","f","f",562882.20181318,6695301.1745664,2,0,2,0,0,0,0,"MONTRICHARD",0,0,0,0,0,0,122,5129,22611
"789","Liege",NA,"LE LIEGE","37127","t","f","t","f","f","f","f",556482.64205294,6682763.8103492,2,0,2,0,0,0,0,"LE LIEGE",0,0,0,0,0,0,126,5066,22485
"791",NA,NA,"LANGEAIS","37123","t","f","t","t","t","t","t",504022.43160555,6694890.5579897,2,0,2,2,2,2,2,"LANGEAIS",0,0,0,0,0,0,100,4540,22602
"818","Gondreville",NA,"GONDREVILLE","60279","t","f","t","t","f","f","f",696625.65985374,6901844.3760722,2,0,2,2,0,0,0,"GONDREVILLE",0,0,0,0,0,0,145,6450,24689
"822",NA,NA,"BOURG-BEAUDOUIN","27104","t","f","t","t","t","t","f",576963.54789697,6922136.368791,2,0,2,2,2,2,0,"BOURG-BEAUDOUIN",0,0,0,0,0,0,134,5251,24882
"869","Villars Marang",NA,"HIERSAC_DOUBLON","16163","t","t","t","t","f","f","f",466841.71895494,6513712.5459397,2,2,2,2,0,0,0,"HIERSAC_DOUBLON",0,0,0,0,0,0,92,4183,20771
"875","La Grolle",NA,"TOUVERAC","16384","t","t","t","t","t","t","t",449266.78486027,6478400.0876553,2,2,2,2,2,2,2,"TOUVERAC",0,0,0,0,0,0,140,4009,20454
"878",NA,NA,"HONFLEUR","14333","t","f","t","t","t","t","t",498156.93435601,6928087.5293495,2,0,3,3,4,2,2,"HONFLEUR",0,0,0,0,9143,8409,4,4462,24935
"879",NA,NA,"BONNEVAL","28051","t","f","t","t","t","t","t",579645.6604295,6788296.0147697,2,0,3,2,3,2,2,"BONNEVAL",0,0,0,0,0,0,142,5289,23543
"916","La Briquetterie, La Bouterie, La Boutetrie, Gracay",NA,"GRACAY","18103","t","t","t","t","f","f","f",612551.26338371,6672103.777405,2,2,2,2,0,0,0,"GRACAY",0,0,0,0,0,0,117,5628,22383
"920",NA,NA,"MONTBAZON","37154","t","f","f","t","t","t","t",527162.98463749,6689802.3843563,2,0,0,2,2,2,2,"MONTBAZON",0,0,0,0,0,0,75,4772,22553
"923",NA,NA,"SAINTE-MAURE-DE-TOURAINE","37226","t","f","f","t","t","t","t",519410.17151732,6670681.1991685,2,0,0,2,2,2,3,"SAINTE-MAURE-DE-TOURAINE",0,0,0,0,0,0,94,4696,22361
"926","Barcoi, Le Barps, Barc",NA,"LE BARP","33029","t","t","t","t","t","f","f",400951.43049502,6396797.1060164,2,2,2,2,2,0,0,"LE BARP",0,0,0,0,0,0,68,3533,19610
"942","La Poste (?), Le Boulay Thierry",NA,"LE BOULLAY-THIERRY","28055","t","f","f","t","f","f","f",584263.53682334,6838724.8134489,2,0,0,4,0,0,0,"LE BOULLAY-THIERRY",0,0,0,0,0,0,136,5331,24048
"1000",NA,NA,"LOUVIERS","27375","t","f","f","t","t","t","t",566210.47665684,6903036.8547184,2,0,0,2,5,3,4,"LOUVIERS",0,0,0,0,6709,8627,97,5145,24690
"1012",NA,NA,"NEUFCHATEL-EN-BRAY","76462","t","f","f","t","t","t","t",587478.91763723,6960627.7868002,2,0,0,2,3,3,5,"NEUFCHATEL-EN-BRAY",0,0,0,0,2600,2998,115,5353,25268
"1059","la Brasseuse",NA,"BRASSEUSE","60100","t","f","f","t","f","f","f",676674.61845096,6906309.9873525,2,0,0,2,0,0,0,"BRASSEUSE",0,0,0,0,0,0,92,6250,24732
"1088","Velaine",NA,"VELAINE-EN-HAYE","54557","t","f","f","t","t","t","t",922141.41219766,6849053.0854453,3,0,0,2,2,2,2,"VELAINE-EN-HAYE",0,0,0,0,0,0,315,8711,24180
"1090",NA,NA,"LUNEVILLE","54329","t","f","f","t","t","t","t",957921.55811103,6837751.3151821,2,0,0,5,5,3,4,"LUNEVILLE",0,2000,10000,16700,11485,12216,229,9070,24070
"1134",NA,NA,"ROSIERES-EN-HAYE","54463","t","f","f","t","t","t","t",920427.80563313,6858961.7774194,3,0,0,3,4,2,4,"ROSIERES-EN-HAYE",0,0,0,0,0,0,279,8693,24279
"1149",NA,NA,"AZERAILLES","54038","t","f","f","t","f","f","f",972821.18735335,6827229.0243004,2,0,0,2,0,0,0,"AZERAILLES",0,0,0,0,0,0,269,9220,23966
"1150",NA,NA,"RAON-L'ETAPE","88372","t","f","f","t","t","t","t",984340.23607592,6818734.6278851,2,0,0,3,2,2,2,"RAON-L'ETAPE",0,0,0,0,0,3160,305,9336,23882
"1176","La Boissire",NA,"SAINT-MARTIN-OSMONVILLE","76621","t","f","f","t","t","t","t",577004.28051676,6950214.8726468,2,0,0,2,2,2,4,"SAINT-MARTIN-OSMONVILLE",0,0,0,0,0,0,130,5250,25162
"1210",NA,NA,"LA CHAPELLE-LA-REINE","77088","t","f","f","f","t","t","t",668000.9531241,6801846.9291055,4,0,0,0,2,2,2,"LA CHAPELLE-LA-REINE",0,0,0,0,0,0,120,6172,23686
"1212",NA,NA,"PITHIVIERS","45252","t","f","f","f","t","t","t",644684.4215593,6786153.1839693,2,0,0,0,2,3,3,"PITHIVIERS",0,0,0,0,3040,3882,120,5940,23527
"1325","Bourg",NA,"BOURG-EN-BRESSE","1053","t","f","f","f","t","t","t",871577.36760515,6569690.8520464,1,0,0,0,4,3,4,"BOURG-EN-BRESSE",5000,6000,6000,0,6073,7826,228,8229,21380
"1343","La Pau (de 1708  1758)",NA,"NOIRETABLE","42159","t","t","t","t","t","t","t",759387.59234484,6524486.267143,2,2,2,2,2,2,2,"NOIRETABLE",0,0,0,0,0,0,786,7110,20918
"1347","Izeron",NA,"YZERON","69269","t","f","f","f","t","t","f",823734.69316759,6513148.5296361,2,0,0,0,2,2,0,"YZERON",0,0,0,0,0,0,718,7755,20810
"1575",NA,NA,"CHATEAUDUN","28088","t","f","f","f","t","t","t",575845.15950351,6775935.9906213,2,0,0,0,2,2,4,"CHATEAUDUN",7000,5000,6000,0,5381,6461,110,5252,23419
"1581",NA,NA,"FITOU","11144","t","f","f","f","t","t","t",698096.45915824,6199327.407587,2,0,0,0,2,2,2,"FITOU",0,0,0,0,0,0,124,6524,17658
"1588",NA,NA,"LAMOTTE-BEUVRON","41106","t","f","f","f","t","t","f",626765.01884715,6722747.3583941,2,0,0,0,2,2,0,"LAMOTTE-BEUVRON",0,0,0,0,0,0,113,5766,22891
"1600",NA,NA,"CHIRENS","38105","t","f","f","f","t","f","f",900005.44583871,6482622.6647529,2,0,0,0,2,0,0,"CHIRENS",0,0,0,0,0,0,455,8521,20511
"1651","Louert, Le Vert, Poussat","Le Pouzat","USSEL","46323","t","f","t","t","t","f","f",581355.29584725,6388897.9277722,2,0,2,2,2,0,0,"USSEL",0,0,0,0,0,0,343,5335,19551
"1659","Bois Martin",NA,"VIRSAC","33553","t","t","t","t","t","f","f",429200.58020099,6442521.0034567,2,2,2,2,2,0,0,"VIRSAC",0,0,0,0,0,0,47,3812,20070
"1660","Chateauvieux",NA,"LA FERTE-BEAUHARNAIS","41083","t","t","t","t","f","f","f",613420.37722098,6716263.8372449,2,2,2,2,0,0,0,"LA FERTE-BEAUHARNAIS",0,0,0,0,0,0,104,5633,22825
"1661","Croquelardy, Croquelardit","Croquelardit","SAINT-JEAN-DE-THURAC","47248","t","t","t","t","t","t","t",519384.98310062,6342472.3854272,2,2,2,2,2,2,2,"SAINT-JEAN-DE-THURAC",0,0,0,0,0,0,151,4723,19076
"1662","Les Vagues (?), La  Cabanne",NA,"LABENNE","40133","t","t","t","t","f","f","f",342613.69589643,6287386.5661931,2,2,2,2,0,0,0,"LABENNE",0,0,0,0,0,0,15,2958,18510
"1663","La Colombire",NA,"BAILLARGUES","34022","t","t","t","t","t","t","t",781732.10064019,6285026.3434721,2,2,2,2,2,2,2,"BAILLARGUES",0,0,0,0,0,0,36,7354,18523
"1664","La Maison Blanche",NA,"ROMANECHE-THORINS","71372","t","t","t","t","t","t","t",833886.87316984,6567115.6200928,2,2,2,2,2,2,2,"ROMANECHE-THORINS",0,0,0,0,0,0,190,7852,21351
"1667","Les Echelles",NA,"LES CHERES","69055","t","t","t","t","t","f","f",835099.88831791,6533633.6335495,2,2,2,2,2,0,0,"LES CHERES",0,0,0,0,0,0,183,7867,21016
"1669","Porcioux, Pourcieux",NA,"POURCIEUX","83096","t","t","t","t","t","f","f",925428.72749886,6267315.8230804,2,2,2,2,2,0,0,"POURCIEUX",0,0,0,0,0,0,393,8794,18358
"1675","Chaux, Limonest","La Chaux","LIMONEST","69116","t","t","t","t","f","t","t",837448.8783666,6527918.5860321,2,2,2,2,0,2,2,"LIMONEST",0,0,0,0,0,0,358,7891,20959
"1676","Janquillet","Jeanquilet","ESCOURCE_DOUBLON","40094","t","t","t","f","f","f","f",377380.29169122,6348738.2877331,2,2,2,0,0,0,0,"ESCOURCE_DOUBLON",0,0,0,0,0,0,53,3301,19127
"1677","La Haye",NA,"DESCARTES","37115","t","t","t","f","f","f","f",525176.73048146,6655145.16529,2,2,2,0,0,0,0,"DESCARTES",0,0,0,0,0,0,93,4755,22206
"1680","Pont Arnault","Pontarneaud","SAINT-CREPIN-DE-RICHEMONT","24391","t","t","t","f","f","f","f",512256.20733097,6482697.208851,2,2,2,0,0,0,0,"SAINT-CREPIN-DE-RICHEMONT",0,0,0,0,0,0,148,4640,20479
"1681","La Haye",NA,"HEILTZ-LE-HUTIER","51288","t","t","f","f","f","f","f",830060.61652047,6844645.7932919,2,2,0,0,0,0,0,"HEILTZ-LE-HUTIER",0,0,0,0,0,0,125,7790,24128
"1683","Lamone","La Moune","MONTUSSAN","33293","t","t","f","f","f","f","f",429464.49126959,6426034.2770401,2,2,0,0,0,0,0,"MONTUSSAN",0,0,0,0,0,0,33,3816,19905
"1687","Grand Pont",NA,"CHASSENEUIL-DU-POITOU","86062","t","f","t","t","t","f","f",499306.41115567,6620087.3142447,2,0,2,2,2,0,0,"CHASSENEUIL-DU-POITOU",0,0,0,0,0,0,104,4499,21853
"1692","Le Buisson, Haut Buisson","Le Buisson","SAINT-INGLEVERT","62751","t","f","t","t","t","t","t",611124.71400042,7087170.3076605,2,0,2,2,2,2,2,"SAINT-INGLEVERT",0,0,0,0,0,0,114,5579,26536
"1693","VilleDieu du pont de dieu, Pont de Vaux, Villedieu du p","rue Villedieu","LA CRECHE","79048","t","t","t","t","t","t","t",445705.12004752,6590454.3900794,2,2,2,2,2,2,2,"LA CRECHE",0,0,0,0,0,0,51,3965,21552
"1711","Bonne","Bel-Air","CHAMARANDE","91132","t","f","f","t","f","f","f",641007.02618336,6824677.2788434,2,0,0,2,0,0,0,"CHAMARANDE",0,0,0,0,0,0,83,5913,23906
"1712","Ste Catherine de l'isle auger",NA,"VARENNES-SUR-LOIRE","49361","t","t","t","t","f","f","f",476071.7986758,6685528.8631186,2,2,2,2,0,0,0,"VARENNES-SUR-LOIRE",0,0,0,0,0,0,28,4271,22512
"1716","Villefalses","Villefalse","SIGEAN_DOUBLON","11379","t","t","t","f","f","f","f",695463.92922975,6215654.4939033,2,2,2,0,0,0,0,"SIGEAN_DOUBLON",0,0,0,0,0,0,8,6524,17809
"1718","Pust de la Gubatte, Puts de la Gubatte, Putsh de la G.","Le Puch","CESTAS_TRIPLON_A","33122","t","t","t","t","t","f","f",405131.34613014,6405329.058134,2,2,2,2,2,0,0,"CESTAS_TRIPLON_A",0,0,0,0,0,0,57,3605,19759
"1730","Faussart, Grand Fossart","Le Grand Fossard","ESMANS","77172","t","f","t","t","t","f","t",697889.16529654,6806649.2936324,2,0,2,2,3,0,3,"ESMANS",0,0,0,0,0,0,99,6474,23724
"1790",NA,NA,"SAINT-LAURENT-DU-VAR","6123","t","f","f","f","f","t","f",1037451.9415173,6295217.4407127,2,0,0,0,0,2,0,"SAINT-LAURENT-DU-VAR",0,0,0,0,0,0,71,9913,18647
"1793",NA,NA,"GAILLAC","81099","t","f","f","f","f","t","t",611436.39229167,6311935.5147944,2,0,0,0,0,2,2,"GAILLAC",0,0,6000,0,5069,5552,150,5647,18778
"1818",NA,NA,"MONTMARAULT","3186","t","f","f","f","t","t","t",696407.92754908,6579672.2727372,2,0,0,0,2,2,3,"MONTMARAULT",0,0,0,0,0,0,460,6475,21465
"1822",NA,NA,"SURGERES","17434","t","f","f","f","f","t","t",410212.59862207,6563469.1996617,2,0,0,0,0,2,3,"SURGERES",0,0,0,0,0,0,20,3612,21279
"1860",NA,NA,"VIZILLE","38562","t","f","f","f","f","t","t",918072.23482693,6445800.943771,2,0,0,0,0,2,2,"VIZILLE",0,0,0,0,0,0,302,8705,20144
"1863",NA,NA,"CORPS","38128","t","f","f","f","f","t","t",932814.72011826,6417500.7364638,2,0,0,0,0,2,2,"CORPS",0,0,0,0,0,0,967,8855,19862
"1915","Le Page",NA,"SERAZEREUX","28374","t","f","f","f","f","f","t",584084.60829575,6832134.8655661,2,0,0,0,0,0,2,"SERAZEREUX",0,0,0,0,0,0,185,5333,24003
"1943","Souchoux, Les Souchons",NA,"LA SALLE-EN-BEAUMONT","38470","t","f","f","f","f","t","t",924489.26763299,6422567.3524433,2,0,0,0,0,2,2,"LA SALLE-EN-BEAUMONT",0,0,0,0,0,0,948,8787,19909
"2025",NA,NA,"ABLIS","78003","t","f","f","f","f","f","t",613827.47649619,6824686.6961343,2,0,0,0,0,0,4,"ABLIS",0,0,0,0,0,0,158,5628,23910
"2026",NA,NA,"BONNELLES","78087","t","f","f","f","f","f","t",628410.20822579,6835657.6131404,2,0,0,0,0,0,4,"BONNELLES",0,0,0,0,0,0,115,5773,24021
"2027",NA,NA,"LE GUE-DE-LONGROI","28188","t","f","f","f","f","f","t",605418.40300594,6822958.1126734,2,0,0,0,0,0,2,"LE GUE-DE-LONGROI",0,0,0,0,0,0,158,5544,23892
"2037",NA,NA,"LAGUIOLE","12119","t","f","f","f","f","f","t",687885.84656772,6398306.8225593,2,0,0,0,0,0,2,"LAGUIOLE",0,0,0,0,0,0,1032,6405,19649
"2038",NA,NA,"ESPALION","12096","t","f","f","f","f","f","t",679124.92947311,6378200.2256643,2,0,0,0,0,0,2,"ESPALION",0,0,0,0,0,0,383,6319,19447
"2039",NA,NA,"RODEZ","12202","t","f","f","f","f","f","t",665698.70914603,6361629.65132,2,0,0,0,0,0,2,"RODEZ",0,0,5000,0,6327,7879,560,6186,19280
"2057",NA,NA,"CHORGES","5040","t","f","f","f","f","f","t",960135.52916933,6388193.3328728,2,0,0,0,0,0,2,"CHORGES",0,0,0,0,0,0,933,9131,19571
"2059",NA,NA,"EMBRUN","5046","t","f","f","f","f","f","t",977443.26181664,6391040.9854952,1,0,0,0,0,0,2,"EMBRUN",0,0,0,0,0,0,1045,9304,19601
"2073",NA,NA,"LILLEBONNE","76384","t","f","f","f","f","f","t",521429.44292226,6938389.1379318,2,0,0,0,0,0,3,"LILLEBONNE",0,0,0,0,0,0,6,4694,25040
"2110",NA,NA,"CHAZELLES-SUR-LYON","42059","t","f","f","f","f","f","t",808282.28029404,6505387.2069157,2,0,0,0,0,0,2,"CHAZELLES-SUR-LYON",0,0,0,0,0,0,532,7601,20731
"2138",NA,NA,"BLANGY-SUR-BRESLE","76101","t","f","f","f","f","f","t",601450.09276332,6982000.0449033,2,0,0,0,0,0,2,"BLANGY-SUR-BRESLE",0,0,0,0,0,0,110,5491,25483
"2139",NA,NA,"FOUCARMONT","76278","t","f","f","f","f","f","t",596778.435696,6973143.5933635,2,0,0,0,0,0,2,"FOUCARMONT",0,0,0,0,0,0,126,5445,25394
"2356","Maison Mauger","Maison Mauger","SAINT-PIERRE-DU-VAL","27597","t","f","f","f","f","f","f",509473.68151567,6922178.8033308,2,0,0,0,0,0,0,"SAINT-PIERRE-DU-VAL",0,0,0,0,0,0,96,4564,24908
"2357","Le Chouquet","La Chouque","SAINT-OUEN-DE-THOUBERVILLE","27580","t","f","f","f","f","f","f",548269.85667476,6919064.9704131,2,0,0,0,0,0,0,"SAINT-OUEN-DE-THOUBERVILLE",0,0,0,0,0,0,135,4944,24852
"2358","La Malmaison","La Vieille Malmaison","PIERREVAL","76502","t","f","f","f","f","f","f",572916.60894819,6939239.5306486,2,0,0,0,0,0,0,"PIERREVAL",0,0,0,0,0,0,163,5218,25056
"2359","Les Planches","Les Planches","ACQUIGNY","27003","t","f","f","f","f","f","f",567183.63453964,6896365.2146734,2,0,0,0,0,0,0,"ACQUIGNY",0,0,0,0,0,0,45,5153,24644
"2360","Monceau","Monceau","CHAMPSERU","28073","t","f","f","f","f","f","f",600039.20104446,6819873.2123965,2,0,0,0,0,0,0,"CHAMPSERU",0,0,0,0,0,0,144,5498,23884
"2361","Beauvais","Beauvais","CHAMPCUEIL","91135","t","f","f","f","f","f","f",660690.18537076,6821926.068357,2,0,0,0,0,0,0,"CHAMPCUEIL",0,0,0,0,0,0,102,6081,23907
"2362","Verteau",NA,"CHEVRAINVILLIERS","77112","t","f","f","f","f","f","f",670182.2473175,6794143.0178213,2,0,0,0,0,0,0,"CHEVRAINVILLIERS",0,0,0,0,0,0,106,6206,23606
"2363","Bois de Feugres",NA,"BOUVILLE","28057","t","f","f","f","f","f","f",581803.5815876,6796168.0757544,2,0,0,0,0,0,0,"BOUVILLE",0,0,0,0,0,0,150,5288,23628
"2364","Mange","Mouge","LA SALLE","71494","t","f","f","f","f","f","f",844070.8223463,6591482.4632491,2,0,0,0,0,0,0,"LA SALLE",0,0,0,0,0,0,199,7946,21595
"2365","Mornas",NA,"SAINT-VICTOR-DE-CESSIEU","38464","t","f","f","f","f","f","f",886174.39546315,6497211.5233946,2,0,0,0,0,0,0,"SAINT-VICTOR-DE-CESSIEU",0,0,0,0,0,0,410,8384,20648
"2366","La Bgude",NA,"FEYZIN","69276","t","f","f","f","f","f","f",845099.91666798,6510183.6714532,2,0,0,0,0,0,0,"FEYZIN",0,0,0,0,0,0,231,7963,20772
"2367","Maison Blanche",NA,"VAUGNERAY","69255","t","f","f","f","f","f","f",830115.07796197,6515924.7016166,2,0,0,0,0,0,0,"VAUGNERAY",0,0,0,0,0,0,424,7806,20846
"2368","Castain",NA,"LE MONTEIL-AU-VICOMTE","23134","t","f","f","f","f","f","f",617572.948674,6531875.5501411,2,0,0,0,0,0,0,"LE MONTEIL-AU-VICOMTE",0,0,0,0,0,0,540,5688,21035
"2369","La Drouille",NA,"BONNAC-LA-COTE_DOUBLON","87020","t","f","f","f","f","f","f",569676.03971761,6539269.5985154,2,0,0,0,0,0,0,"BONNAC-LA-COTE_DOUBLON",0,0,0,0,0,0,422,5183,21051
"2370","Moulin Perrin",NA,"COINGS","36057","t","f","f","f","f","f","f",603522.23715105,6643901.1468471,2,0,0,0,0,0,0,"COINGS",0,0,0,0,0,0,161,5526,22096
"2371","Grangeneuve",NA,"BRION_TRIPLON_B","36026","t","f","f","f","f","f","f",604613.28136243,6654883.4099868,2,0,0,0,0,0,0,"BRION_TRIPLON_B",0,0,0,0,0,0,180,5538,22176
"2372","Piolent",NA,"DANGE-SAINT-ROMAIN_DOUBLON","86092","t","f","f","f","f","f","f",517620.09201202,6647613.8286986,3,0,0,0,0,0,0,"DANGE-SAINT-ROMAIN_DOUBLON",0,0,0,0,0,0,53,4682,22166
"2373","Senelles",NA,"SAINT-GEORGES-SUR-CHER_DOUBLON","41211","t","f","f","f","f","f","f",559950.58780178,6691228.8202782,2,0,0,0,0,0,0,"SAINT-GEORGES-SUR-CHER_DOUBLON",0,0,0,0,0,0,100,5085,22589
"2374","La Coudraye",NA,"SAINT-LEONARD-EN-BEAUCE","41221","t","f","f","f","f","f","f",575388.02377892,6745061.2321285,2,0,0,0,0,0,0,"SAINT-LEONARD-EN-BEAUCE",0,0,0,0,0,0,128,5283,23150
"2375","Pontijou",NA,"MAVES","41130","t","f","f","f","f","f","f",574338.84680069,6739074.2177877,2,0,0,0,0,0,0,"MAVES",0,0,0,0,0,0,118,5270,23052
"2376","Perches",NA,"CEPOY_DOUBLON","45061","t","f","f","f","f","f","f",678464.47103359,6772344.4854771,2,0,0,0,0,0,0,"CEPOY_DOUBLON",0,0,0,0,0,0,97,6299,23385
"2377","Foussottes","Fousserotte","SOLTERRE","45312","t","f","f","f","f","f","f",680788.83997227,6757836.8651523,2,0,0,0,0,0,0,"SOLTERRE",0,0,0,0,0,0,108,6303,23230
"2378","Pontempeyrat",NA,"CRAPONNE-SUR-ARZON_DOUBLON","43080","t","f","f","f","f","f","f",770609.93967256,6472443.594414,2,0,0,0,0,0,0,"CRAPONNE-SUR-ARZON_DOUBLON",0,0,0,0,0,0,921,7181,20380
"2379","La Rousure","La Ronzire","SOULAGES","15229","t","f","f","f","f","f","f",718755.15891651,6443048.7121326,2,0,0,0,0,0,0,"SOULAGES",0,0,0,0,0,0,1040,6736,20103
"2380","Pont de Lanau",NA,"NEUVEGLISE","15142","t","f","f","f","f","f","f",699583.36997253,6420214.7316318,2,0,0,0,0,0,0,"NEUVEGLISE",0,0,0,0,0,0,976,6509,19920
"2381","Labourie",NA,"MANHAC","12137","t","f","f","f","f","f","f",658023.843964,6350573.4113889,2,0,0,0,0,0,0,"MANHAC",0,0,0,0,0,0,720,6105,19169
"2382","La Maison Neuve",NA,"NAUCELLE","12169","t","f","f","f","f","f","f",647932.70616076,6339657.7500537,2,0,0,0,0,0,0,"NAUCELLE",0,0,0,0,0,0,481,6003,19107
"2383","Le Pont de Cirou",NA,"CRESPIN","12085","t","f","f","f","f","f","f",633916.25996142,6337775.7668659,2,0,0,0,0,0,0,"CRESPIN",0,0,0,0,0,0,466,5955,19063
"2384","Plantublac",NA,"BEDENAC_DOUBLON","17038","t","f","f","f","f","f","f",439090.43759335,6459513.8808953,2,0,0,0,0,0,0,"BEDENAC_DOUBLON",0,0,0,0,0,0,74,3927,20218
"2385","La Bruyre","La Breure","CERILLY","3048","t","f","f","f","f","f","f",683201.93567606,6613256.2610219,2,0,0,0,0,0,0,"CERILLY",0,0,0,0,0,0,291,6369,21798
"2386","Venaix",NA,"BESSAIS-LE-FROMENTAL","18029","t","f","f","f","f","f","f",685309.5934621,6626228.2956191,2,0,0,0,0,0,0,"BESSAIS-LE-FROMENTAL",0,0,0,0,0,0,206,6326,21941
"2387",NA,NA,"INGRANDES","49160","t","f","f","f","f","f","f",404401.78973671,6707702.6121025,2,0,0,0,0,0,0,"INGRANDES",0,0,0,0,0,0,47,3542,22722
"2388",NA,NA,"MONTLIVAULT","41148","t","f","f","f","f","f","f",583138.56767236,6727808.6416908,2,0,0,0,0,0,0,"MONTLIVAULT",0,0,0,0,0,0,90,5329,22938
"2389",NA,NA,"MUIDES-SUR-LOIRE","41155","t","f","f","f","f","f","f",589257.99139289,6730655.5000839,2,0,0,0,0,0,0,"MUIDES-SUR-LOIRE",0,0,0,0,0,0,85,5390,22967
"2390",NA,NA,"GUILLERVAL","91294","t","f","f","f","f","f","f",633270.4380343,6807434.899926,2,0,0,0,0,0,0,"GUILLERVAL",0,0,0,0,0,0,140,5824,23739
"2391","Corme","rue de Corme","SAINT-CYR-EN-VAL","45272","t","f","f","f","f","f","f",622782.41247613,6748362.6166354,2,0,0,0,0,0,0,"SAINT-CYR-EN-VAL",0,0,0,0,0,0,110,5724,23147
"2392",NA,NA,"BRUGUIERES","31091","t","f","f","f","f","f","f",571923.02802483,6293485.1130277,2,0,0,0,0,0,0,"BRUGUIERES",0,0,0,0,0,0,123,5253,18590
"2393",NA,NA,"BEGUEY","33040","t","f","f","f","f","f","f",436139.53515475,6399504.7473496,2,0,0,0,0,0,0,"BEGUEY",0,0,0,0,0,0,21,3885,19640
"2394",NA,NA,"PORT-DE-PILES","86195","t","f","f","f","f","f","f",517712.10915589,6658704.4474147,2,0,0,0,0,0,0,"PORT-DE-PILES",0,0,0,0,0,0,45,4680,22241
"2395",NA,NA,"SANSAIS","79304","t","f","f","f","f","f","f",423946.41263229,6581141.3701216,3,0,0,0,0,0,0,"SANSAIS",0,0,0,0,0,0,18,3748,21457
"2396",NA,NA,"SAINT-CREPIN","17321","t","f","f","f","f","f","f",411213.21414829,6551471.1171767,2,0,0,0,0,0,0,"SAINT-CREPIN",0,0,0,0,0,0,34,3623,21159
"2397",NA,NA,"TONNAY-CHARENTE","17449","t","f","f","f","f","f","f",398079.38368526,6545983.7865616,2,0,0,0,0,0,0,"TONNAY-CHARENTE",0,0,0,0,0,0,30,3492,21103
"2398",NA,NA,"SOUBISE","17429","t","f","f","f","f","f","f",389272.96859474,6544257.4723274,2,0,0,0,0,0,0,"SOUBISE",0,0,0,0,0,0,19,3404,21085
"2399",NA,NA,"HIERS-BROUAGE","17189","t","f","f","f","f","f","f",383909.87814304,6536008.6062442,1,0,0,0,0,0,0,"HIERS-BROUAGE",0,0,0,0,0,0,3,3351,21002
"2400",NA,NA,"MONTRESOR","37157","t","f","f","f","f","f","f",563707.63303591,6674409.9925298,2,0,0,0,0,0,0,"MONTRESOR",0,0,0,0,0,0,105,5139,22402
"2401",NA,NA,"EPEIGNE-LES-BOIS","37100","t","f","f","f","f","f","f",557328.49631623,6688352.6888604,2,0,0,0,0,0,0,"EPEIGNE-LES-BOIS",0,0,0,0,0,0,115,5074,22541
"2402",NA,NA,"ALLEMANS","24007","t","f","f","f","f","f","f",489064.59669761,6469101.8176713,2,0,0,0,0,0,0,"ALLEMANS",0,0,0,0,0,0,119,4409,20341
"2403",NA,NA,"RABASTENS","81220","t","f","f","f","f","f","f",597379.10001121,6303362.0358276,2,0,0,0,0,0,0,"RABASTENS",0,0,0,0,3039,3417,208,5507,18691
"2404",NA,NA,"VILLENEUVE-SUR-VERE","81319","t","f","f","f","f","f","f",622019.27152712,6323135.3967774,2,0,0,0,0,0,0,"VILLENEUVE-SUR-VERE",0,0,0,0,0,0,242,5752,18891
"2405",NA,NA,"MONESTIES","81170","t","f","f","f","f","f","f",627679.29029632,6330979.8866574,2,0,0,0,0,0,0,"MONESTIES",0,0,0,0,0,0,220,5808,18970
"2406",NA,NA,"LISLE-SUR-TARN","81145","t","f","f","f","f","f","f",604399.74712722,6306699.9548849,2,0,0,0,0,0,0,"LISLE-SUR-TARN",0,0,0,0,0,0,191,5577,18725
"2407",NA,NA,"LACALM","12117","t","f","f","f","f","f","f",690867.04318315,6408272.1317403,2,0,0,0,0,0,0,"LACALM",0,0,0,0,0,0,1138,6434,19749
"2408",NA,NA,"LAVOUTE-CHILHAC","43118","t","f","f","f","f","f","f",731982.48152078,6450185.2032731,2,0,0,0,0,0,0,"LAVOUTE-CHILHAC",0,0,0,0,0,0,480,6842,20172
"2409",NA,NA,"SEMBADEL","43237","t","f","f","f","f","f","f",753581.2084516,6464189.2821867,2,0,0,0,0,0,0,"SEMBADEL",0,0,0,0,0,0,1043,7057,20314
"2410",NA,NA,"CRAPONNE-SUR-ARZON","43080","t","f","f","f","f","f","f",766024.85360496,6470677.7956347,2,0,0,0,0,0,0,"CRAPONNE-SUR-ARZON",0,0,0,0,0,0,921,7181,20380
"2411",NA,NA,"ESTIVAREILLES","42091","t","f","f","f","f","f","f",778793.90587128,6480160.6672131,2,0,0,0,0,0,0,"ESTIVAREILLES",0,0,0,0,0,0,998,7308,20476
"2412",NA,NA,"SAINT-MARCELLIN-EN-FOREZ","42256","t","f","f","f","f","f","f",790960.25151833,6489249.0337247,2,0,0,0,0,0,0,"SAINT-MARCELLIN-EN-FOREZ",0,0,0,0,0,0,407,7429,20568
"2413",NA,NA,"SAINT-GALMIER","42222","t","f","f","f","f","f","f",802741.50938945,6500039.2068218,2,0,0,0,0,0,0,"SAINT-GALMIER",0,0,0,0,0,0,449,7546,20677
"2414",NA,NA,"SAINT-THIBERY","34289","t","f","f","f","f","f","f",733832.12822772,6255464.1057194,2,0,0,0,0,0,0,"SAINT-THIBERY",0,0,0,0,0,0,8,6877,18223
"2415",NA,NA,"SAINT-JEAN-DE-VEDAS","34270","t","f","f","f","f","f","f",766668.40630535,6275664.1947556,2,0,0,0,0,0,0,"SAINT-JEAN-DE-VEDAS",0,0,0,0,0,0,40,7204,18428
"2416","Rochette (?)",NA,"LA ROCHE-DE-GLUN","26271","t","f","f","f","f","f","f",845360.65081916,6436533.3083478,2,0,0,0,0,0,0,"LA ROCHE-DE-GLUN",0,0,0,0,0,0,127,7978,20045
"2417",NA,NA,"SAINT-GENIES-DE-COMOLAS","30254","t","f","f","f","f","f","f",838067.46957297,6331198.5266528,2,0,0,0,0,0,0,"SAINT-GENIES-DE-COMOLAS",0,0,0,0,0,0,50,7914,18990
"2418",NA,NA,"VILLENEUVE-LES-AVIGNON","30351","t","f","f","f","f","f","f",844266.77007437,6320156.6963114,2,0,0,0,0,0,0,"VILLENEUVE-LES-AVIGNON",0,0,0,0,0,0,65,7977,18880
"2419",NA,NA,"CHELIEU","38098","t","f","f","f","f","f","f",893889.53941962,6491766.854242,2,0,0,0,0,0,0,"CHELIEU",0,0,0,0,0,0,487,8459,20602
"2420",NA,NA,"PIERRE-CHATEL","38304","t","f","f","f","f","f","f",918755.38553374,6432307.6677942,2,0,0,0,0,0,0,"PIERRE-CHATEL",0,0,0,0,0,0,928,8713,20009
"2421",NA,NA,"SAINT-EUSEBE-EN-CHAMPSAUR","5141","t","f","f","f","f","f","f",940522.26216519,6407643.782859,2,0,0,0,0,0,0,"SAINT-EUSEBE-EN-CHAMPSAUR",0,0,0,0,0,0,1040,8933,19764
"2422",NA,NA,"SAINT-LAURENT-DU-CROS","5148","t","f","f","f","f","f","f",946539.45722157,6398700.5333968,2,0,0,0,0,0,0,"SAINT-LAURENT-DU-CROS",0,0,0,0,0,0,1230,8994,19675
"2425",NA,NA,"NEYRON","1275","t","f","f","f","f","f","f",849719.49498186,6525715.5072622,2,0,0,0,0,0,0,"NEYRON",0,0,0,0,0,0,249,8014,20938
"2426",NA,NA,"SAINT-NIZIER-LE-DESERT","1381","t","f","f","f","f","f","f",865939.47379655,6553053.1085909,2,0,0,0,0,0,0,"SAINT-NIZIER-LE-DESERT",0,0,0,0,0,0,283,8174,21213
"2427",NA,NA,"LE MONTELLIER","1260","t","f","f","f","f","f","f",860622.10826345,6538810.8743321,2,0,0,0,0,0,0,"LE MONTELLIER",0,0,0,0,0,0,289,8122,21070
"2428",NA,NA,"COMBLANCHIEN","21186","t","f","f","f","f","f","f",845644.41762164,6668534.0568373,2,0,0,0,0,0,0,"COMBLANCHIEN",0,0,0,0,0,0,269,7961,22367
"2429",NA,NA,"GILLY-LES-CITEAUX","21297","t","f","f","f","f","f","f",849910.11002711,6676591.4001845,2,0,0,0,0,0,0,"GILLY-LES-CITEAUX",0,0,0,0,0,0,221,8003,22448
"2430",NA,NA,"JUVISY-SUR-ORGE","91326","t","f","f","f","f","f","f",654062.00101756,6843737.4218322,2,0,0,0,0,0,0,"JUVISY-SUR-ORGE",0,0,0,0,0,0,77,6029,24104
"2431",NA,NA,"PREFONTAINES","45255","t","f","f","f","f","f","f",676900.06612651,6778687.3145691,2,0,0,0,0,0,0,"PREFONTAINES",0,0,0,0,0,0,85,6263,23455
"2432",NA,NA,"BOUGLIGNY","77045","t","f","f","f","f","f","f",674482.65889193,6788301.2339911,2,0,0,0,0,0,0,"BOUGLIGNY",0,0,0,0,0,0,115,6238,23551
"2433",NA,NA,"MILLY-LA-FORET","91405","t","f","f","f","f","f","f",660386.22245039,6811404.685166,2,0,0,0,0,0,0,"MILLY-LA-FORET",0,0,0,0,0,0,70,6095,23781
"2434",NA,NA,"FOURCHAMBAULT","58117","t","f","f","f","f","f","f",706259.77539372,6657826.8239772,2,0,0,0,0,0,0,"FOURCHAMBAULT",0,0,0,0,0,0,172,6567,22248
"2435",NA,NA,"ESCUROLLES","3109","t","f","f","f","f","f","f",720525.72307193,6560484.7126675,2,0,0,0,0,0,0,"ESCUROLLES",0,0,0,0,0,0,300,6718,21275
"2436",NA,NA,"L'ARBRESLE","69010","t","f","f","f","f","f","f",825456.01510299,6527521.3578932,2,0,0,0,0,0,0,"L'ARBRESLE",0,0,0,0,0,0,226,7771,20954
"2437",NA,NA,"VILLEPARISIS","77514","t","f","f","f","f","f","f",671287.24727327,6871775.4199909,2,0,0,0,0,0,0,"VILLEPARISIS",0,0,0,0,0,0,65,6199,24386
"2438",NA,NA,"FRESNES-SUR-MARNE","77196","t","f","f","f","f","f","f",680973.10118268,6870794.5467373,2,0,0,0,0,0,0,"FRESNES-SUR-MARNE",0,0,0,0,0,0,48,6296,24377
"2439",NA,NA,"CITRY","77117","t","f","f","f","f","f","f",717579.92639348,6874183.6368572,2,0,0,0,0,0,0,"CITRY",0,0,0,0,0,0,135,6662,24414
"2440",NA,NA,"REUILLY-SAUVIGNY","2645","t","f","f","f","f","f","f",740651.72185553,6884282.4900313,2,0,0,0,0,0,0,"REUILLY-SAUVIGNY",0,0,0,0,0,0,157,6892,24517
"2441",NA,NA,"MARDEUIL","51344","t","f","f","f","f","f","f",768034.4807963,6884150.3075743,2,0,0,0,0,0,0,"MARDEUIL",0,0,0,0,0,0,68,7166,24518
"2442",NA,NA,"AULNOIS-EN-PERTHOIS","55015","t","f","f","f","f","f","f",856895.69759016,6839019.8129237,2,0,0,0,0,0,0,"AULNOIS-EN-PERTHOIS",0,0,0,0,0,0,270,8059,24074
"2443",NA,NA,"NANT-LE-GRAND","55373","t","f","f","f","f","f","f",863835.33331194,6844157.1153158,2,0,0,0,0,0,0,"NANT-LE-GRAND",0,0,0,0,0,0,251,8128,24126
"2444",NA,NA,"SAINT-NICOLAS-DE-PORT","54483","t","f","f","f","f","f","f",942965.65204582,6841777.9445516,2,0,0,0,0,0,0,"SAINT-NICOLAS-DE-PORT",0,0,0,0,0,0,225,8920,24109
"2445",NA,NA,"DEUXVILLE","54155","t","f","f","f","f","f","f",954550.62180486,6840878.5365375,2,0,0,0,0,0,0,"DEUXVILLE",0,0,0,0,0,0,250,9036,24101
"2448",NA,NA,"SAINT-REMY-EN-L'EAU","60595","t","f","f","f","f","f","f",658586.95257684,6930348.5868624,2,0,0,0,0,0,0,"SAINT-REMY-EN-L'EAU",0,0,0,0,0,0,96,6067,24971
"2449",NA,NA,"BEHEN","80076","t","f","f","f","f","f","f",610563.5342303,6996116.790924,2,0,0,0,0,0,0,"BEHEN",0,0,0,0,0,0,101,5581,25625
"2450",NA,NA,"MARTAINNEVILLE","80518","t","f","f","f","f","f","f",606711.40839621,6989652.217818,2,0,0,0,0,0,0,"MARTAINNEVILLE",0,0,0,0,0,0,96,5543,25560
"2451",NA,NA,"LA VAUPALIERE","76728","t","f","f","f","f","f","f",554673.16065911,6933815.5114592,2,0,0,0,0,0,0,"LA VAUPALIERE",0,0,0,0,0,0,122,5027,24997
"2452",NA,NA,"SAINTE-MARGUERITE-SUR-DUCLAIR","76608","t","f","f","f","f","f","f",543602.39767689,6936605.9795681,2,0,0,0,0,0,0,"SAINTE-MARGUERITE-SUR-DUCLAIR",0,0,0,0,0,0,116,4916,25024
"2453",NA,NA,"SAINT-ROMAIN-DE-COLBOSC","76647","t","f","f","f","f","f","f",508549.65239156,6939994.9562267,2,0,0,0,0,0,0,"SAINT-ROMAIN-DE-COLBOSC",0,0,0,0,0,0,120,4565,25055
"2454",NA,NA,"HARFLEUR","76341","t","f","f","f","f","f","f",496737.98688227,6937794.0332221,2,0,0,0,0,0,0,"HARFLEUR",0,0,0,0,0,0,5,4447,25032
"2455",NA,NA,"PUISEUX-PONTOISE","95510","t","f","f","f","f","f","f",628419.62551671,6884527.9069021,2,0,0,0,0,0,0,"PUISEUX-PONTOISE",0,0,0,0,0,0,106,5769,24510
"2456",NA,NA,"GRAND-COURONNE","76319","t","f","f","f","f","f","f",555153.10211232,6919419.5370895,3,0,0,0,0,0,0,"GRAND-COURONNE",0,0,0,0,0,0,27,5033,24853
"2457",NA,NA,"TOUQUES","14699","t","f","f","f","f","f","f",489393.86149602,6919864.6459124,2,0,0,0,0,0,0,"TOUQUES",0,0,0,0,0,0,59,4375,24852
"2458",NA,NA,"BREVILLE","14106","t","f","f","f","f","f","f",464920.25122203,6909272.6897701,2,0,0,0,0,0,0,"BREVILLE",0,0,0,0,0,0,25,4131,24744
"2459",NA,NA,"BRESTOT","27110","t","f","f","f","f","f","f",531765.43028957,6919314.0180466,2,0,0,0,0,0,0,"BRESTOT",0,0,0,0,0,0,133,4799,24850
"2460",NA,NA,"PONT-DE-L'ARCHE","27469","t","f","f","f","f","f","f",565793.16586135,6912934.6544043,3,0,0,0,0,0,0,"PONT-DE-L'ARCHE",0,0,0,0,0,0,32,5140,24789
"2461",NA,NA,"GROSSOEUVRE","27301","t","f","f","f","f","f","f",568053.76952894,6872339.5497558,2,0,0,0,0,0,0,"GROSSOEUVRE",0,0,0,0,0,0,142,5166,24383
"2462",NA,NA,"ILLIERS-L'EVEQUE","27350","t","f","f","f","f","f","f",572740.63041534,6859108.3694662,2,0,0,0,0,0,0,"ILLIERS-L'EVEQUE",0,0,0,0,0,0,135,5214,24251
"2463",NA,NA,"THIVARS","28388","t","f","f","f","f","f","f",585221.71780973,6809835.4014214,2,0,0,0,0,0,0,"THIVARS",0,0,0,0,0,0,136,5343,23759
"2464",NA,NA,"LA FERTE-VILLENEUIL","28150","t","f","f","f","f","f","f",576361.40858439,6765938.571882,2,0,0,0,0,0,0,"LA FERTE-VILLENEUIL",0,0,0,0,0,0,128,5258,23319
"2465",NA,NA,"ASCHERES-LE-MARCHE","45009","t","f","f","f","f","f","f",626137.01034985,6779013.6293727,2,0,0,0,0,0,0,"ASCHERES-LE-MARCHE",0,0,0,0,0,0,124,5755,23454
"2466",NA,NA,"JOUY-EN-PITHIVERAIS","45174","t","f","f","f","f","f","f",633963.00603204,6782745.3727288,2,0,0,0,0,0,0,"JOUY-EN-PITHIVERAIS",0,0,0,0,0,0,122,5833,23492
"2467",NA,NA,"MANCHECOURT","45192","t","f","f","f","f","f","f",651040.07178234,6793295.0077926,2,0,0,0,0,0,0,"MANCHECOURT",0,0,0,0,0,0,133,6003,23599
"2468",NA,NA,"RUMONT","77395","t","f","f","f","f","f","f",662656.92417692,6796195.5333978,2,0,0,0,0,0,0,"RUMONT",0,0,0,0,0,0,119,6119,23629
"2469",NA,NA,"PALAISEAU","91477","t","f","f","f","f","f","f",643887.35567069,6846021.3985351,2,0,0,0,0,0,0,"PALAISEAU",0,0,0,0,0,0,154,5927,24126
"2470",NA,NA,"SAINT-ARNOULT-EN-YVELINES","78537","t","f","f","f","f","f","f",621772.94696567,6830716.3719377,2,0,0,0,0,0,0,"SAINT-ARNOULT-EN-YVELINES",0,0,0,0,0,0,115,5707,23971
"2471","Saint-Claire",NA,"GOMETZ-LE-CHATEL","91275","t","f","f","f","f","f","f",636561.38409827,6842385.076163,2,0,0,0,0,0,0,"GOMETZ-LE-CHATEL",0,0,0,0,0,0,160,5854,24089
"2472","Cirandille (?)",NA,"LE TATRE","16380","t","f","f","f","f","f","f",449211.07534407,6482419.1151153,2,0,0,0,0,0,0,"LE TATRE",0,0,0,0,0,0,115,4009,20471
"2473","La Belle-Croix (?)",NA,"TENDU","36219","t","f","f","f","f","f","f",589808.50579738,6617036.906214,2,0,0,0,0,0,0,"TENDU",0,0,0,0,0,0,167,5405,21830
"2474","Pontargue (?)",NA,"PAULHAGUET","43148","t","f","f","f","f","f","f",740228.28414787,6456509.6516286,2,0,0,0,0,0,0,"PAULHAGUET",0,0,0,0,0,0,515,6924,20236
"2475","La Fontaine",NA,"CHATEAUNEUF-DU-RHONE","26085","t","f","f","f","f","f","f",836367.02452348,6377766.5764364,2,0,0,0,0,0,0,"CHATEAUNEUF-DU-RHONE",0,0,0,0,0,0,72,7893,19456
"2476",NA,NA,"PIERREFITTE-SUR-SAULDRE","41176","t","f","f","f","f","f","f",635975.58321813,6712877.3567357,2,0,0,0,0,0,0,"PIERREFITTE-SUR-SAULDRE",0,0,0,0,0,0,134,5859,22793
"2477",NA,NA,"SOUESMES","41249","t","f","f","f","f","f","f",638121.81785857,6706663.8735672,2,0,0,0,0,0,0,"SOUESMES",0,0,0,0,0,0,118,5881,22731
"2478",NA,NA,"NEUVY-SUR-BARANGEON","18165","t","f","f","f","f","f","f",643684.14641709,6690728.7961685,2,0,0,0,0,0,0,"NEUVY-SUR-BARANGEON",0,0,0,0,0,0,150,5938,22572
"2479",NA,NA,"ALLOGNY","18004","t","f","f","f","f","f","f",648497.0628483,6680795.8234683,2,0,0,0,0,0,0,"ALLOGNY",0,0,0,0,0,0,196,5987,22473
"2480",NA,NA,"SAINT-JUST","18218","t","f","f","f","f","f","f",662768.570132,6654895.5503498,2,0,0,0,0,0,0,"SAINT-JUST",0,0,0,0,0,0,145,6132,22215
"2481",NA,NA,"DUN-SUR-AURON","18087","t","f","f","f","f","f","f",667462.91946661,6642765.3988691,2,0,0,0,0,0,0,"DUN-SUR-AURON",0,0,0,0,0,3428,170,6180,22094
"2482",NA,NA,"LE PONDY","18183","t","f","f","f","f","f","f",673182.27851479,6633724.3457349,3,0,0,0,0,0,0,"LE PONDY",0,0,0,0,0,0,181,6238,22004
"2483",NA,NA,"COULEUVRE","3087","t","f","f","f","f","f","f",692943.15871766,6619069.5660567,2,0,0,0,0,0,0,"COULEUVRE",0,0,0,0,0,0,246,6437,21859
"2484",NA,NA,"SAINT-MENOUX","3247","t","f","f","f","f","f","f",712345.16071331,6609313.5930414,2,0,0,0,0,0,0,"SAINT-MENOUX",0,0,0,0,0,0,234,6632,21763
"2485",NA,NA,"FRANCHESSE","3117","t","f","f","f","f","f","f",702503.63785028,6615291.8708593,2,0,0,0,0,0,0,"FRANCHESSE",0,0,0,0,0,0,288,6533,21822
"2486",NA,NA,"AINAY-LE-CHATEAU","3003","t","f","f","f","f","f","f",676493.53415798,6623504.6562375,2,0,0,0,0,0,0,"AINAY-LE-CHATEAU",0,0,0,0,0,0,205,6272,21902
"2487",NA,NA,"COSNE-D'ALLIER","3084","t","f","f","f","f","f","f",686963.0655183,6597137.7166421,2,0,0,0,0,0,0,"COSNE-D'ALLIER",0,0,0,0,0,0,237,6379,21639
"2488",NA,NA,"VILLEFRANCHE-D'ALLIER","3315","t","f","f","f","f","f","f",688987.89652873,6588427.6302263,2,0,0,0,0,0,0,"VILLEFRANCHE-D'ALLIER",0,0,0,0,0,0,251,6400,21552
"2489",NA,NA,"CHANTELLE","3053","t","f","f","f","f","f","f",711721.57720814,6570950.1594197,2,0,0,0,0,0,0,"CHANTELLE",0,0,0,0,0,0,320,6629,21379
"2490",NA,NA,"JENZAT","3133","t","f","f","f","f","f","f",715044.29244631,6562129.5616622,2,0,0,0,0,0,0,"JENZAT",0,0,0,0,0,0,290,6663,21291
